%!PS-Adobe-3.0 EPSF-3.0
%%BoundingBox: 0 0 371 371
1 1 1 setrgbcolor
0 371 moveto
0 -371 rlineto 371 0 rlineto 0 371 rlineto closepath
fill
0 0 0 setrgbcolor
0 371 moveto
0 -7 rlineto 7 0 rlineto 0 7 rlineto closepath
fill
7 371 moveto
0 -7 rlineto 7 0 rlineto 0 7 rlineto closepath
fill
14 371 moveto
0 -7 rlineto 7 0 rlineto 0 7 rlineto closepath
fill
21 371 moveto
0 -7 rlineto 7 0 rlineto 0 7 rlineto closepath
fill
28 371 moveto
0 -7 rlineto 7 0 rlineto 0 7 rlineto closepath
fill
35 371 moveto
0 -7 rlineto 7 0 rlineto 0 7 rlineto closepath
fill
42 371 moveto
0 -7 rlineto 7 0 rlineto 0 7 rlineto closepath
fill
56 371 moveto
0 -7 rlineto 7 0 rlineto 0 7 rlineto closepath
fill
63 371 moveto
0 -7 rlineto 7 0 rlineto 0 7 rlineto closepath
fill
77 371 moveto
0 -7 rlineto 7 0 rlineto 0 7 rlineto closepath
fill
98 371 moveto
0 -7 rlineto 7 0 rlineto 0 7 rlineto closepath
fill
126 371 moveto
0 -7 rlineto 7 0 rlineto 0 7 rlineto closepath
fill
147 371 moveto
0 -7 rlineto 7 0 rlineto 0 7 rlineto closepath
fill
161 371 moveto
0 -7 rlineto 7 0 rlineto 0 7 rlineto closepath
fill
168 371 moveto
0 -7 rlineto 7 0 rlineto 0 7 rlineto closepath
fill
175 371 moveto
0 -7 rlineto 7 0 rlineto 0 7 rlineto closepath
fill
182 371 moveto
0 -7 rlineto 7 0 rlineto 0 7 rlineto closepath
fill
189 371 moveto
0 -7 rlineto 7 0 rlineto 0 7 rlineto closepath
fill
196 371 moveto
0 -7 rlineto 7 0 rlineto 0 7 rlineto closepath
fill
203 371 moveto
0 -7 rlineto 7 0 rlineto 0 7 rlineto closepath
fill
210 371 moveto
0 -7 rlineto 7 0 rlineto 0 7 rlineto closepath
fill
217 371 moveto
0 -7 rlineto 7 0 rlineto 0 7 rlineto closepath
fill
224 371 moveto
0 -7 rlineto 7 0 rlineto 0 7 rlineto closepath
fill
231 371 moveto
0 -7 rlineto 7 0 rlineto 0 7 rlineto closepath
fill
252 371 moveto
0 -7 rlineto 7 0 rlineto 0 7 rlineto closepath
fill
266 371 moveto
0 -7 rlineto 7 0 rlineto 0 7 rlineto closepath
fill
273 371 moveto
0 -7 rlineto 7 0 rlineto 0 7 rlineto closepath
fill
287 371 moveto
0 -7 rlineto 7 0 rlineto 0 7 rlineto closepath
fill
294 371 moveto
0 -7 rlineto 7 0 rlineto 0 7 rlineto closepath
fill
322 371 moveto
0 -7 rlineto 7 0 rlineto 0 7 rlineto closepath
fill
329 371 moveto
0 -7 rlineto 7 0 rlineto 0 7 rlineto closepath
fill
336 371 moveto
0 -7 rlineto 7 0 rlineto 0 7 rlineto closepath
fill
343 371 moveto
0 -7 rlineto 7 0 rlineto 0 7 rlineto closepath
fill
350 371 moveto
0 -7 rlineto 7 0 rlineto 0 7 rlineto closepath
fill
357 371 moveto
0 -7 rlineto 7 0 rlineto 0 7 rlineto closepath
fill
364 371 moveto
0 -7 rlineto 7 0 rlineto 0 7 rlineto closepath
fill
0 364 moveto
0 -7 rlineto 7 0 rlineto 0 7 rlineto closepath
fill
42 364 moveto
0 -7 rlineto 7 0 rlineto 0 7 rlineto closepath
fill
56 364 moveto
0 -7 rlineto 7 0 rlineto 0 7 rlineto closepath
fill
63 364 moveto
0 -7 rlineto 7 0 rlineto 0 7 rlineto closepath
fill
70 364 moveto
0 -7 rlineto 7 0 rlineto 0 7 rlineto closepath
fill
77 364 moveto
0 -7 rlineto 7 0 rlineto 0 7 rlineto closepath
fill
91 364 moveto
0 -7 rlineto 7 0 rlineto 0 7 rlineto closepath
fill
98 364 moveto
0 -7 rlineto 7 0 rlineto 0 7 rlineto closepath
fill
105 364 moveto
0 -7 rlineto 7 0 rlineto 0 7 rlineto closepath
fill
119 364 moveto
0 -7 rlineto 7 0 rlineto 0 7 rlineto closepath
fill
133 364 moveto
0 -7 rlineto 7 0 rlineto 0 7 rlineto closepath
fill
154 364 moveto
0 -7 rlineto 7 0 rlineto 0 7 rlineto closepath
fill
161 364 moveto
0 -7 rlineto 7 0 rlineto 0 7 rlineto closepath
fill
168 364 moveto
0 -7 rlineto 7 0 rlineto 0 7 rlineto closepath
fill
182 364 moveto
0 -7 rlineto 7 0 rlineto 0 7 rlineto closepath
fill
189 364 moveto
0 -7 rlineto 7 0 rlineto 0 7 rlineto closepath
fill
210 364 moveto
0 -7 rlineto 7 0 rlineto 0 7 rlineto closepath
fill
217 364 moveto
0 -7 rlineto 7 0 rlineto 0 7 rlineto closepath
fill
224 364 moveto
0 -7 rlineto 7 0 rlineto 0 7 rlineto closepath
fill
238 364 moveto
0 -7 rlineto 7 0 rlineto 0 7 rlineto closepath
fill
252 364 moveto
0 -7 rlineto 7 0 rlineto 0 7 rlineto closepath
fill
273 364 moveto
0 -7 rlineto 7 0 rlineto 0 7 rlineto closepath
fill
287 364 moveto
0 -7 rlineto 7 0 rlineto 0 7 rlineto closepath
fill
294 364 moveto
0 -7 rlineto 7 0 rlineto 0 7 rlineto closepath
fill
301 364 moveto
0 -7 rlineto 7 0 rlineto 0 7 rlineto closepath
fill
322 364 moveto
0 -7 rlineto 7 0 rlineto 0 7 rlineto closepath
fill
364 364 moveto
0 -7 rlineto 7 0 rlineto 0 7 rlineto closepath
fill
0 357 moveto
0 -7 rlineto 7 0 rlineto 0 7 rlineto closepath
fill
14 357 moveto
0 -7 rlineto 7 0 rlineto 0 7 rlineto closepath
fill
21 357 moveto
0 -7 rlineto 7 0 rlineto 0 7 rlineto closepath
fill
28 357 moveto
0 -7 rlineto 7 0 rlineto 0 7 rlineto closepath
fill
42 357 moveto
0 -7 rlineto 7 0 rlineto 0 7 rlineto closepath
fill
56 357 moveto
0 -7 rlineto 7 0 rlineto 0 7 rlineto closepath
fill
63 357 moveto
0 -7 rlineto 7 0 rlineto 0 7 rlineto closepath
fill
77 357 moveto
0 -7 rlineto 7 0 rlineto 0 7 rlineto closepath
fill
91 357 moveto
0 -7 rlineto 7 0 rlineto 0 7 rlineto closepath
fill
105 357 moveto
0 -7 rlineto 7 0 rlineto 0 7 rlineto closepath
fill
112 357 moveto
0 -7 rlineto 7 0 rlineto 0 7 rlineto closepath
fill
119 357 moveto
0 -7 rlineto 7 0 rlineto 0 7 rlineto closepath
fill
133 357 moveto
0 -7 rlineto 7 0 rlineto 0 7 rlineto closepath
fill
140 357 moveto
0 -7 rlineto 7 0 rlineto 0 7 rlineto closepath
fill
147 357 moveto
0 -7 rlineto 7 0 rlineto 0 7 rlineto closepath
fill
154 357 moveto
0 -7 rlineto 7 0 rlineto 0 7 rlineto closepath
fill
161 357 moveto
0 -7 rlineto 7 0 rlineto 0 7 rlineto closepath
fill
175 357 moveto
0 -7 rlineto 7 0 rlineto 0 7 rlineto closepath
fill
203 357 moveto
0 -7 rlineto 7 0 rlineto 0 7 rlineto closepath
fill
224 357 moveto
0 -7 rlineto 7 0 rlineto 0 7 rlineto closepath
fill
231 357 moveto
0 -7 rlineto 7 0 rlineto 0 7 rlineto closepath
fill
238 357 moveto
0 -7 rlineto 7 0 rlineto 0 7 rlineto closepath
fill
245 357 moveto
0 -7 rlineto 7 0 rlineto 0 7 rlineto closepath
fill
252 357 moveto
0 -7 rlineto 7 0 rlineto 0 7 rlineto closepath
fill
266 357 moveto
0 -7 rlineto 7 0 rlineto 0 7 rlineto closepath
fill
273 357 moveto
0 -7 rlineto 7 0 rlineto 0 7 rlineto closepath
fill
287 357 moveto
0 -7 rlineto 7 0 rlineto 0 7 rlineto closepath
fill
301 357 moveto
0 -7 rlineto 7 0 rlineto 0 7 rlineto closepath
fill
322 357 moveto
0 -7 rlineto 7 0 rlineto 0 7 rlineto closepath
fill
336 357 moveto
0 -7 rlineto 7 0 rlineto 0 7 rlineto closepath
fill
343 357 moveto
0 -7 rlineto 7 0 rlineto 0 7 rlineto closepath
fill
350 357 moveto
0 -7 rlineto 7 0 rlineto 0 7 rlineto closepath
fill
364 357 moveto
0 -7 rlineto 7 0 rlineto 0 7 rlineto closepath
fill
0 350 moveto
0 -7 rlineto 7 0 rlineto 0 7 rlineto closepath
fill
14 350 moveto
0 -7 rlineto 7 0 rlineto 0 7 rlineto closepath
fill
21 350 moveto
0 -7 rlineto 7 0 rlineto 0 7 rlineto closepath
fill
28 350 moveto
0 -7 rlineto 7 0 rlineto 0 7 rlineto closepath
fill
42 350 moveto
0 -7 rlineto 7 0 rlineto 0 7 rlineto closepath
fill
56 350 moveto
0 -7 rlineto 7 0 rlineto 0 7 rlineto closepath
fill
70 350 moveto
0 -7 rlineto 7 0 rlineto 0 7 rlineto closepath
fill
84 350 moveto
0 -7 rlineto 7 0 rlineto 0 7 rlineto closepath
fill
105 350 moveto
0 -7 rlineto 7 0 rlineto 0 7 rlineto closepath
fill
119 350 moveto
0 -7 rlineto 7 0 rlineto 0 7 rlineto closepath
fill
140 350 moveto
0 -7 rlineto 7 0 rlineto 0 7 rlineto closepath
fill
147 350 moveto
0 -7 rlineto 7 0 rlineto 0 7 rlineto closepath
fill
154 350 moveto
0 -7 rlineto 7 0 rlineto 0 7 rlineto closepath
fill
161 350 moveto
0 -7 rlineto 7 0 rlineto 0 7 rlineto closepath
fill
168 350 moveto
0 -7 rlineto 7 0 rlineto 0 7 rlineto closepath
fill
175 350 moveto
0 -7 rlineto 7 0 rlineto 0 7 rlineto closepath
fill
189 350 moveto
0 -7 rlineto 7 0 rlineto 0 7 rlineto closepath
fill
196 350 moveto
0 -7 rlineto 7 0 rlineto 0 7 rlineto closepath
fill
210 350 moveto
0 -7 rlineto 7 0 rlineto 0 7 rlineto closepath
fill
217 350 moveto
0 -7 rlineto 7 0 rlineto 0 7 rlineto closepath
fill
231 350 moveto
0 -7 rlineto 7 0 rlineto 0 7 rlineto closepath
fill
280 350 moveto
0 -7 rlineto 7 0 rlineto 0 7 rlineto closepath
fill
294 350 moveto
0 -7 rlineto 7 0 rlineto 0 7 rlineto closepath
fill
308 350 moveto
0 -7 rlineto 7 0 rlineto 0 7 rlineto closepath
fill
322 350 moveto
0 -7 rlineto 7 0 rlineto 0 7 rlineto closepath
fill
336 350 moveto
0 -7 rlineto 7 0 rlineto 0 7 rlineto closepath
fill
343 350 moveto
0 -7 rlineto 7 0 rlineto 0 7 rlineto closepath
fill
350 350 moveto
0 -7 rlineto 7 0 rlineto 0 7 rlineto closepath
fill
364 350 moveto
0 -7 rlineto 7 0 rlineto 0 7 rlineto closepath
fill
0 343 moveto
0 -7 rlineto 7 0 rlineto 0 7 rlineto closepath
fill
14 343 moveto
0 -7 rlineto 7 0 rlineto 0 7 rlineto closepath
fill
21 343 moveto
0 -7 rlineto 7 0 rlineto 0 7 rlineto closepath
fill
28 343 moveto
0 -7 rlineto 7 0 rlineto 0 7 rlineto closepath
fill
42 343 moveto
0 -7 rlineto 7 0 rlineto 0 7 rlineto closepath
fill
63 343 moveto
0 -7 rlineto 7 0 rlineto 0 7 rlineto closepath
fill
91 343 moveto
0 -7 rlineto 7 0 rlineto 0 7 rlineto closepath
fill
98 343 moveto
0 -7 rlineto 7 0 rlineto 0 7 rlineto closepath
fill
105 343 moveto
0 -7 rlineto 7 0 rlineto 0 7 rlineto closepath
fill
133 343 moveto
0 -7 rlineto 7 0 rlineto 0 7 rlineto closepath
fill
140 343 moveto
0 -7 rlineto 7 0 rlineto 0 7 rlineto closepath
fill
154 343 moveto
0 -7 rlineto 7 0 rlineto 0 7 rlineto closepath
fill
161 343 moveto
0 -7 rlineto 7 0 rlineto 0 7 rlineto closepath
fill
168 343 moveto
0 -7 rlineto 7 0 rlineto 0 7 rlineto closepath
fill
175 343 moveto
0 -7 rlineto 7 0 rlineto 0 7 rlineto closepath
fill
182 343 moveto
0 -7 rlineto 7 0 rlineto 0 7 rlineto closepath
fill
189 343 moveto
0 -7 rlineto 7 0 rlineto 0 7 rlineto closepath
fill
196 343 moveto
0 -7 rlineto 7 0 rlineto 0 7 rlineto closepath
fill
203 343 moveto
0 -7 rlineto 7 0 rlineto 0 7 rlineto closepath
fill
210 343 moveto
0 -7 rlineto 7 0 rlineto 0 7 rlineto closepath
fill
245 343 moveto
0 -7 rlineto 7 0 rlineto 0 7 rlineto closepath
fill
252 343 moveto
0 -7 rlineto 7 0 rlineto 0 7 rlineto closepath
fill
266 343 moveto
0 -7 rlineto 7 0 rlineto 0 7 rlineto closepath
fill
280 343 moveto
0 -7 rlineto 7 0 rlineto 0 7 rlineto closepath
fill
287 343 moveto
0 -7 rlineto 7 0 rlineto 0 7 rlineto closepath
fill
294 343 moveto
0 -7 rlineto 7 0 rlineto 0 7 rlineto closepath
fill
322 343 moveto
0 -7 rlineto 7 0 rlineto 0 7 rlineto closepath
fill
336 343 moveto
0 -7 rlineto 7 0 rlineto 0 7 rlineto closepath
fill
343 343 moveto
0 -7 rlineto 7 0 rlineto 0 7 rlineto closepath
fill
350 343 moveto
0 -7 rlineto 7 0 rlineto 0 7 rlineto closepath
fill
364 343 moveto
0 -7 rlineto 7 0 rlineto 0 7 rlineto closepath
fill
0 336 moveto
0 -7 rlineto 7 0 rlineto 0 7 rlineto closepath
fill
42 336 moveto
0 -7 rlineto 7 0 rlineto 0 7 rlineto closepath
fill
56 336 moveto
0 -7 rlineto 7 0 rlineto 0 7 rlineto closepath
fill
77 336 moveto
0 -7 rlineto 7 0 rlineto 0 7 rlineto closepath
fill
105 336 moveto
0 -7 rlineto 7 0 rlineto 0 7 rlineto closepath
fill
112 336 moveto
0 -7 rlineto 7 0 rlineto 0 7 rlineto closepath
fill
126 336 moveto
0 -7 rlineto 7 0 rlineto 0 7 rlineto closepath
fill
133 336 moveto
0 -7 rlineto 7 0 rlineto 0 7 rlineto closepath
fill
140 336 moveto
0 -7 rlineto 7 0 rlineto 0 7 rlineto closepath
fill
168 336 moveto
0 -7 rlineto 7 0 rlineto 0 7 rlineto closepath
fill
196 336 moveto
0 -7 rlineto 7 0 rlineto 0 7 rlineto closepath
fill
217 336 moveto
0 -7 rlineto 7 0 rlineto 0 7 rlineto closepath
fill
224 336 moveto
0 -7 rlineto 7 0 rlineto 0 7 rlineto closepath
fill
238 336 moveto
0 -7 rlineto 7 0 rlineto 0 7 rlineto closepath
fill
252 336 moveto
0 -7 rlineto 7 0 rlineto 0 7 rlineto closepath
fill
280 336 moveto
0 -7 rlineto 7 0 rlineto 0 7 rlineto closepath
fill
287 336 moveto
0 -7 rlineto 7 0 rlineto 0 7 rlineto closepath
fill
294 336 moveto
0 -7 rlineto 7 0 rlineto 0 7 rlineto closepath
fill
322 336 moveto
0 -7 rlineto 7 0 rlineto 0 7 rlineto closepath
fill
364 336 moveto
0 -7 rlineto 7 0 rlineto 0 7 rlineto closepath
fill
0 329 moveto
0 -7 rlineto 7 0 rlineto 0 7 rlineto closepath
fill
7 329 moveto
0 -7 rlineto 7 0 rlineto 0 7 rlineto closepath
fill
14 329 moveto
0 -7 rlineto 7 0 rlineto 0 7 rlineto closepath
fill
21 329 moveto
0 -7 rlineto 7 0 rlineto 0 7 rlineto closepath
fill
28 329 moveto
0 -7 rlineto 7 0 rlineto 0 7 rlineto closepath
fill
35 329 moveto
0 -7 rlineto 7 0 rlineto 0 7 rlineto closepath
fill
42 329 moveto
0 -7 rlineto 7 0 rlineto 0 7 rlineto closepath
fill
56 329 moveto
0 -7 rlineto 7 0 rlineto 0 7 rlineto closepath
fill
70 329 moveto
0 -7 rlineto 7 0 rlineto 0 7 rlineto closepath
fill
84 329 moveto
0 -7 rlineto 7 0 rlineto 0 7 rlineto closepath
fill
98 329 moveto
0 -7 rlineto 7 0 rlineto 0 7 rlineto closepath
fill
112 329 moveto
0 -7 rlineto 7 0 rlineto 0 7 rlineto closepath
fill
126 329 moveto
0 -7 rlineto 7 0 rlineto 0 7 rlineto closepath
fill
140 329 moveto
0 -7 rlineto 7 0 rlineto 0 7 rlineto closepath
fill
154 329 moveto
0 -7 rlineto 7 0 rlineto 0 7 rlineto closepath
fill
168 329 moveto
0 -7 rlineto 7 0 rlineto 0 7 rlineto closepath
fill
182 329 moveto
0 -7 rlineto 7 0 rlineto 0 7 rlineto closepath
fill
196 329 moveto
0 -7 rlineto 7 0 rlineto 0 7 rlineto closepath
fill
210 329 moveto
0 -7 rlineto 7 0 rlineto 0 7 rlineto closepath
fill
224 329 moveto
0 -7 rlineto 7 0 rlineto 0 7 rlineto closepath
fill
238 329 moveto
0 -7 rlineto 7 0 rlineto 0 7 rlineto closepath
fill
252 329 moveto
0 -7 rlineto 7 0 rlineto 0 7 rlineto closepath
fill
266 329 moveto
0 -7 rlineto 7 0 rlineto 0 7 rlineto closepath
fill
280 329 moveto
0 -7 rlineto 7 0 rlineto 0 7 rlineto closepath
fill
294 329 moveto
0 -7 rlineto 7 0 rlineto 0 7 rlineto closepath
fill
308 329 moveto
0 -7 rlineto 7 0 rlineto 0 7 rlineto closepath
fill
322 329 moveto
0 -7 rlineto 7 0 rlineto 0 7 rlineto closepath
fill
329 329 moveto
0 -7 rlineto 7 0 rlineto 0 7 rlineto closepath
fill
336 329 moveto
0 -7 rlineto 7 0 rlineto 0 7 rlineto closepath
fill
343 329 moveto
0 -7 rlineto 7 0 rlineto 0 7 rlineto closepath
fill
350 329 moveto
0 -7 rlineto 7 0 rlineto 0 7 rlineto closepath
fill
357 329 moveto
0 -7 rlineto 7 0 rlineto 0 7 rlineto closepath
fill
364 329 moveto
0 -7 rlineto 7 0 rlineto 0 7 rlineto closepath
fill
63 322 moveto
0 -7 rlineto 7 0 rlineto 0 7 rlineto closepath
fill
70 322 moveto
0 -7 rlineto 7 0 rlineto 0 7 rlineto closepath
fill
98 322 moveto
0 -7 rlineto 7 0 rlineto 0 7 rlineto closepath
fill
105 322 moveto
0 -7 rlineto 7 0 rlineto 0 7 rlineto closepath
fill
112 322 moveto
0 -7 rlineto 7 0 rlineto 0 7 rlineto closepath
fill
133 322 moveto
0 -7 rlineto 7 0 rlineto 0 7 rlineto closepath
fill
140 322 moveto
0 -7 rlineto 7 0 rlineto 0 7 rlineto closepath
fill
147 322 moveto
0 -7 rlineto 7 0 rlineto 0 7 rlineto closepath
fill
168 322 moveto
0 -7 rlineto 7 0 rlineto 0 7 rlineto closepath
fill
196 322 moveto
0 -7 rlineto 7 0 rlineto 0 7 rlineto closepath
fill
203 322 moveto
0 -7 rlineto 7 0 rlineto 0 7 rlineto closepath
fill
224 322 moveto
0 -7 rlineto 7 0 rlineto 0 7 rlineto closepath
fill
238 322 moveto
0 -7 rlineto 7 0 rlineto 0 7 rlineto closepath
fill
245 322 moveto
0 -7 rlineto 7 0 rlineto 0 7 rlineto closepath
fill
252 322 moveto
0 -7 rlineto 7 0 rlineto 0 7 rlineto closepath
fill
273 322 moveto
0 -7 rlineto 7 0 rlineto 0 7 rlineto closepath
fill
287 322 moveto
0 -7 rlineto 7 0 rlineto 0 7 rlineto closepath
fill
294 322 moveto
0 -7 rlineto 7 0 rlineto 0 7 rlineto closepath
fill
308 322 moveto
0 -7 rlineto 7 0 rlineto 0 7 rlineto closepath
fill
0 315 moveto
0 -7 rlineto 7 0 rlineto 0 7 rlineto closepath
fill
7 315 moveto
0 -7 rlineto 7 0 rlineto 0 7 rlineto closepath
fill
28 315 moveto
0 -7 rlineto 7 0 rlineto 0 7 rlineto closepath
fill
35 315 moveto
0 -7 rlineto 7 0 rlineto 0 7 rlineto closepath
fill
42 315 moveto
0 -7 rlineto 7 0 rlineto 0 7 rlineto closepath
fill
77 315 moveto
0 -7 rlineto 7 0 rlineto 0 7 rlineto closepath
fill
84 315 moveto
0 -7 rlineto 7 0 rlineto 0 7 rlineto closepath
fill
126 315 moveto
0 -7 rlineto 7 0 rlineto 0 7 rlineto closepath
fill
140 315 moveto
0 -7 rlineto 7 0 rlineto 0 7 rlineto closepath
fill
147 315 moveto
0 -7 rlineto 7 0 rlineto 0 7 rlineto closepath
fill
161 315 moveto
0 -7 rlineto 7 0 rlineto 0 7 rlineto closepath
fill
168 315 moveto
0 -7 rlineto 7 0 rlineto 0 7 rlineto closepath
fill
175 315 moveto
0 -7 rlineto 7 0 rlineto 0 7 rlineto closepath
fill
182 315 moveto
0 -7 rlineto 7 0 rlineto 0 7 rlineto closepath
fill
189 315 moveto
0 -7 rlineto 7 0 rlineto 0 7 rlineto closepath
fill
196 315 moveto
0 -7 rlineto 7 0 rlineto 0 7 rlineto closepath
fill
217 315 moveto
0 -7 rlineto 7 0 rlineto 0 7 rlineto closepath
fill
224 315 moveto
0 -7 rlineto 7 0 rlineto 0 7 rlineto closepath
fill
238 315 moveto
0 -7 rlineto 7 0 rlineto 0 7 rlineto closepath
fill
252 315 moveto
0 -7 rlineto 7 0 rlineto 0 7 rlineto closepath
fill
259 315 moveto
0 -7 rlineto 7 0 rlineto 0 7 rlineto closepath
fill
273 315 moveto
0 -7 rlineto 7 0 rlineto 0 7 rlineto closepath
fill
301 315 moveto
0 -7 rlineto 7 0 rlineto 0 7 rlineto closepath
fill
308 315 moveto
0 -7 rlineto 7 0 rlineto 0 7 rlineto closepath
fill
329 315 moveto
0 -7 rlineto 7 0 rlineto 0 7 rlineto closepath
fill
343 315 moveto
0 -7 rlineto 7 0 rlineto 0 7 rlineto closepath
fill
350 315 moveto
0 -7 rlineto 7 0 rlineto 0 7 rlineto closepath
fill
357 315 moveto
0 -7 rlineto 7 0 rlineto 0 7 rlineto closepath
fill
364 315 moveto
0 -7 rlineto 7 0 rlineto 0 7 rlineto closepath
fill
0 308 moveto
0 -7 rlineto 7 0 rlineto 0 7 rlineto closepath
fill
14 308 moveto
0 -7 rlineto 7 0 rlineto 0 7 rlineto closepath
fill
35 308 moveto
0 -7 rlineto 7 0 rlineto 0 7 rlineto closepath
fill
49 308 moveto
0 -7 rlineto 7 0 rlineto 0 7 rlineto closepath
fill
56 308 moveto
0 -7 rlineto 7 0 rlineto 0 7 rlineto closepath
fill
70 308 moveto
0 -7 rlineto 7 0 rlineto 0 7 rlineto closepath
fill
77 308 moveto
0 -7 rlineto 7 0 rlineto 0 7 rlineto closepath
fill
91 308 moveto
0 -7 rlineto 7 0 rlineto 0 7 rlineto closepath
fill
98 308 moveto
0 -7 rlineto 7 0 rlineto 0 7 rlineto closepath
fill
105 308 moveto
0 -7 rlineto 7 0 rlineto 0 7 rlineto closepath
fill
112 308 moveto
0 -7 rlineto 7 0 rlineto 0 7 rlineto closepath
fill
119 308 moveto
0 -7 rlineto 7 0 rlineto 0 7 rlineto closepath
fill
126 308 moveto
0 -7 rlineto 7 0 rlineto 0 7 rlineto closepath
fill
133 308 moveto
0 -7 rlineto 7 0 rlineto 0 7 rlineto closepath
fill
140 308 moveto
0 -7 rlineto 7 0 rlineto 0 7 rlineto closepath
fill
168 308 moveto
0 -7 rlineto 7 0 rlineto 0 7 rlineto closepath
fill
182 308 moveto
0 -7 rlineto 7 0 rlineto 0 7 rlineto closepath
fill
203 308 moveto
0 -7 rlineto 7 0 rlineto 0 7 rlineto closepath
fill
210 308 moveto
0 -7 rlineto 7 0 rlineto 0 7 rlineto closepath
fill
217 308 moveto
0 -7 rlineto 7 0 rlineto 0 7 rlineto closepath
fill
231 308 moveto
0 -7 rlineto 7 0 rlineto 0 7 rlineto closepath
fill
245 308 moveto
0 -7 rlineto 7 0 rlineto 0 7 rlineto closepath
fill
252 308 moveto
0 -7 rlineto 7 0 rlineto 0 7 rlineto closepath
fill
259 308 moveto
0 -7 rlineto 7 0 rlineto 0 7 rlineto closepath
fill
266 308 moveto
0 -7 rlineto 7 0 rlineto 0 7 rlineto closepath
fill
280 308 moveto
0 -7 rlineto 7 0 rlineto 0 7 rlineto closepath
fill
287 308 moveto
0 -7 rlineto 7 0 rlineto 0 7 rlineto closepath
fill
294 308 moveto
0 -7 rlineto 7 0 rlineto 0 7 rlineto closepath
fill
301 308 moveto
0 -7 rlineto 7 0 rlineto 0 7 rlineto closepath
fill
308 308 moveto
0 -7 rlineto 7 0 rlineto 0 7 rlineto closepath
fill
315 308 moveto
0 -7 rlineto 7 0 rlineto 0 7 rlineto closepath
fill
329 308 moveto
0 -7 rlineto 7 0 rlineto 0 7 rlineto closepath
fill
336 308 moveto
0 -7 rlineto 7 0 rlineto 0 7 rlineto closepath
fill
343 308 moveto
0 -7 rlineto 7 0 rlineto 0 7 rlineto closepath
fill
350 308 moveto
0 -7 rlineto 7 0 rlineto 0 7 rlineto closepath
fill
7 301 moveto
0 -7 rlineto 7 0 rlineto 0 7 rlineto closepath
fill
35 301 moveto
0 -7 rlineto 7 0 rlineto 0 7 rlineto closepath
fill
42 301 moveto
0 -7 rlineto 7 0 rlineto 0 7 rlineto closepath
fill
49 301 moveto
0 -7 rlineto 7 0 rlineto 0 7 rlineto closepath
fill
63 301 moveto
0 -7 rlineto 7 0 rlineto 0 7 rlineto closepath
fill
84 301 moveto
0 -7 rlineto 7 0 rlineto 0 7 rlineto closepath
fill
98 301 moveto
0 -7 rlineto 7 0 rlineto 0 7 rlineto closepath
fill
105 301 moveto
0 -7 rlineto 7 0 rlineto 0 7 rlineto closepath
fill
119 301 moveto
0 -7 rlineto 7 0 rlineto 0 7 rlineto closepath
fill
133 301 moveto
0 -7 rlineto 7 0 rlineto 0 7 rlineto closepath
fill
147 301 moveto
0 -7 rlineto 7 0 rlineto 0 7 rlineto closepath
fill
154 301 moveto
0 -7 rlineto 7 0 rlineto 0 7 rlineto closepath
fill
161 301 moveto
0 -7 rlineto 7 0 rlineto 0 7 rlineto closepath
fill
196 301 moveto
0 -7 rlineto 7 0 rlineto 0 7 rlineto closepath
fill
203 301 moveto
0 -7 rlineto 7 0 rlineto 0 7 rlineto closepath
fill
210 301 moveto
0 -7 rlineto 7 0 rlineto 0 7 rlineto closepath
fill
217 301 moveto
0 -7 rlineto 7 0 rlineto 0 7 rlineto closepath
fill
224 301 moveto
0 -7 rlineto 7 0 rlineto 0 7 rlineto closepath
fill
231 301 moveto
0 -7 rlineto 7 0 rlineto 0 7 rlineto closepath
fill
287 301 moveto
0 -7 rlineto 7 0 rlineto 0 7 rlineto closepath
fill
322 301 moveto
0 -7 rlineto 7 0 rlineto 0 7 rlineto closepath
fill
364 301 moveto
0 -7 rlineto 7 0 rlineto 0 7 rlineto closepath
fill
14 294 moveto
0 -7 rlineto 7 0 rlineto 0 7 rlineto closepath
fill
21 294 moveto
0 -7 rlineto 7 0 rlineto 0 7 rlineto closepath
fill
28 294 moveto
0 -7 rlineto 7 0 rlineto 0 7 rlineto closepath
fill
49 294 moveto
0 -7 rlineto 7 0 rlineto 0 7 rlineto closepath
fill
77 294 moveto
0 -7 rlineto 7 0 rlineto 0 7 rlineto closepath
fill
98 294 moveto
0 -7 rlineto 7 0 rlineto 0 7 rlineto closepath
fill
119 294 moveto
0 -7 rlineto 7 0 rlineto 0 7 rlineto closepath
fill
147 294 moveto
0 -7 rlineto 7 0 rlineto 0 7 rlineto closepath
fill
154 294 moveto
0 -7 rlineto 7 0 rlineto 0 7 rlineto closepath
fill
175 294 moveto
0 -7 rlineto 7 0 rlineto 0 7 rlineto closepath
fill
217 294 moveto
0 -7 rlineto 7 0 rlineto 0 7 rlineto closepath
fill
245 294 moveto
0 -7 rlineto 7 0 rlineto 0 7 rlineto closepath
fill
252 294 moveto
0 -7 rlineto 7 0 rlineto 0 7 rlineto closepath
fill
259 294 moveto
0 -7 rlineto 7 0 rlineto 0 7 rlineto closepath
fill
287 294 moveto
0 -7 rlineto 7 0 rlineto 0 7 rlineto closepath
fill
322 294 moveto
0 -7 rlineto 7 0 rlineto 0 7 rlineto closepath
fill
343 294 moveto
0 -7 rlineto 7 0 rlineto 0 7 rlineto closepath
fill
364 294 moveto
0 -7 rlineto 7 0 rlineto 0 7 rlineto closepath
fill
14 287 moveto
0 -7 rlineto 7 0 rlineto 0 7 rlineto closepath
fill
42 287 moveto
0 -7 rlineto 7 0 rlineto 0 7 rlineto closepath
fill
63 287 moveto
0 -7 rlineto 7 0 rlineto 0 7 rlineto closepath
fill
77 287 moveto
0 -7 rlineto 7 0 rlineto 0 7 rlineto closepath
fill
84 287 moveto
0 -7 rlineto 7 0 rlineto 0 7 rlineto closepath
fill
98 287 moveto
0 -7 rlineto 7 0 rlineto 0 7 rlineto closepath
fill
112 287 moveto
0 -7 rlineto 7 0 rlineto 0 7 rlineto closepath
fill
119 287 moveto
0 -7 rlineto 7 0 rlineto 0 7 rlineto closepath
fill
126 287 moveto
0 -7 rlineto 7 0 rlineto 0 7 rlineto closepath
fill
140 287 moveto
0 -7 rlineto 7 0 rlineto 0 7 rlineto closepath
fill
147 287 moveto
0 -7 rlineto 7 0 rlineto 0 7 rlineto closepath
fill
161 287 moveto
0 -7 rlineto 7 0 rlineto 0 7 rlineto closepath
fill
175 287 moveto
0 -7 rlineto 7 0 rlineto 0 7 rlineto closepath
fill
189 287 moveto
0 -7 rlineto 7 0 rlineto 0 7 rlineto closepath
fill
196 287 moveto
0 -7 rlineto 7 0 rlineto 0 7 rlineto closepath
fill
203 287 moveto
0 -7 rlineto 7 0 rlineto 0 7 rlineto closepath
fill
210 287 moveto
0 -7 rlineto 7 0 rlineto 0 7 rlineto closepath
fill
224 287 moveto
0 -7 rlineto 7 0 rlineto 0 7 rlineto closepath
fill
238 287 moveto
0 -7 rlineto 7 0 rlineto 0 7 rlineto closepath
fill
245 287 moveto
0 -7 rlineto 7 0 rlineto 0 7 rlineto closepath
fill
252 287 moveto
0 -7 rlineto 7 0 rlineto 0 7 rlineto closepath
fill
259 287 moveto
0 -7 rlineto 7 0 rlineto 0 7 rlineto closepath
fill
266 287 moveto
0 -7 rlineto 7 0 rlineto 0 7 rlineto closepath
fill
301 287 moveto
0 -7 rlineto 7 0 rlineto 0 7 rlineto closepath
fill
329 287 moveto
0 -7 rlineto 7 0 rlineto 0 7 rlineto closepath
fill
336 287 moveto
0 -7 rlineto 7 0 rlineto 0 7 rlineto closepath
fill
343 287 moveto
0 -7 rlineto 7 0 rlineto 0 7 rlineto closepath
fill
350 287 moveto
0 -7 rlineto 7 0 rlineto 0 7 rlineto closepath
fill
364 287 moveto
0 -7 rlineto 7 0 rlineto 0 7 rlineto closepath
fill
21 280 moveto
0 -7 rlineto 7 0 rlineto 0 7 rlineto closepath
fill
35 280 moveto
0 -7 rlineto 7 0 rlineto 0 7 rlineto closepath
fill
63 280 moveto
0 -7 rlineto 7 0 rlineto 0 7 rlineto closepath
fill
70 280 moveto
0 -7 rlineto 7 0 rlineto 0 7 rlineto closepath
fill
77 280 moveto
0 -7 rlineto 7 0 rlineto 0 7 rlineto closepath
fill
91 280 moveto
0 -7 rlineto 7 0 rlineto 0 7 rlineto closepath
fill
98 280 moveto
0 -7 rlineto 7 0 rlineto 0 7 rlineto closepath
fill
105 280 moveto
0 -7 rlineto 7 0 rlineto 0 7 rlineto closepath
fill
119 280 moveto
0 -7 rlineto 7 0 rlineto 0 7 rlineto closepath
fill
126 280 moveto
0 -7 rlineto 7 0 rlineto 0 7 rlineto closepath
fill
140 280 moveto
0 -7 rlineto 7 0 rlineto 0 7 rlineto closepath
fill
147 280 moveto
0 -7 rlineto 7 0 rlineto 0 7 rlineto closepath
fill
168 280 moveto
0 -7 rlineto 7 0 rlineto 0 7 rlineto closepath
fill
175 280 moveto
0 -7 rlineto 7 0 rlineto 0 7 rlineto closepath
fill
182 280 moveto
0 -7 rlineto 7 0 rlineto 0 7 rlineto closepath
fill
189 280 moveto
0 -7 rlineto 7 0 rlineto 0 7 rlineto closepath
fill
203 280 moveto
0 -7 rlineto 7 0 rlineto 0 7 rlineto closepath
fill
210 280 moveto
0 -7 rlineto 7 0 rlineto 0 7 rlineto closepath
fill
231 280 moveto
0 -7 rlineto 7 0 rlineto 0 7 rlineto closepath
fill
252 280 moveto
0 -7 rlineto 7 0 rlineto 0 7 rlineto closepath
fill
266 280 moveto
0 -7 rlineto 7 0 rlineto 0 7 rlineto closepath
fill
287 280 moveto
0 -7 rlineto 7 0 rlineto 0 7 rlineto closepath
fill
294 280 moveto
0 -7 rlineto 7 0 rlineto 0 7 rlineto closepath
fill
308 280 moveto
0 -7 rlineto 7 0 rlineto 0 7 rlineto closepath
fill
329 280 moveto
0 -7 rlineto 7 0 rlineto 0 7 rlineto closepath
fill
336 280 moveto
0 -7 rlineto 7 0 rlineto 0 7 rlineto closepath
fill
357 280 moveto
0 -7 rlineto 7 0 rlineto 0 7 rlineto closepath
fill
7 273 moveto
0 -7 rlineto 7 0 rlineto 0 7 rlineto closepath
fill
28 273 moveto
0 -7 rlineto 7 0 rlineto 0 7 rlineto closepath
fill
35 273 moveto
0 -7 rlineto 7 0 rlineto 0 7 rlineto closepath
fill
42 273 moveto
0 -7 rlineto 7 0 rlineto 0 7 rlineto closepath
fill
56 273 moveto
0 -7 rlineto 7 0 rlineto 0 7 rlineto closepath
fill
63 273 moveto
0 -7 rlineto 7 0 rlineto 0 7 rlineto closepath
fill
77 273 moveto
0 -7 rlineto 7 0 rlineto 0 7 rlineto closepath
fill
112 273 moveto
0 -7 rlineto 7 0 rlineto 0 7 rlineto closepath
fill
126 273 moveto
0 -7 rlineto 7 0 rlineto 0 7 rlineto closepath
fill
133 273 moveto
0 -7 rlineto 7 0 rlineto 0 7 rlineto closepath
fill
154 273 moveto
0 -7 rlineto 7 0 rlineto 0 7 rlineto closepath
fill
161 273 moveto
0 -7 rlineto 7 0 rlineto 0 7 rlineto closepath
fill
168 273 moveto
0 -7 rlineto 7 0 rlineto 0 7 rlineto closepath
fill
175 273 moveto
0 -7 rlineto 7 0 rlineto 0 7 rlineto closepath
fill
182 273 moveto
0 -7 rlineto 7 0 rlineto 0 7 rlineto closepath
fill
196 273 moveto
0 -7 rlineto 7 0 rlineto 0 7 rlineto closepath
fill
203 273 moveto
0 -7 rlineto 7 0 rlineto 0 7 rlineto closepath
fill
210 273 moveto
0 -7 rlineto 7 0 rlineto 0 7 rlineto closepath
fill
217 273 moveto
0 -7 rlineto 7 0 rlineto 0 7 rlineto closepath
fill
224 273 moveto
0 -7 rlineto 7 0 rlineto 0 7 rlineto closepath
fill
231 273 moveto
0 -7 rlineto 7 0 rlineto 0 7 rlineto closepath
fill
252 273 moveto
0 -7 rlineto 7 0 rlineto 0 7 rlineto closepath
fill
259 273 moveto
0 -7 rlineto 7 0 rlineto 0 7 rlineto closepath
fill
266 273 moveto
0 -7 rlineto 7 0 rlineto 0 7 rlineto closepath
fill
294 273 moveto
0 -7 rlineto 7 0 rlineto 0 7 rlineto closepath
fill
350 273 moveto
0 -7 rlineto 7 0 rlineto 0 7 rlineto closepath
fill
364 273 moveto
0 -7 rlineto 7 0 rlineto 0 7 rlineto closepath
fill
0 266 moveto
0 -7 rlineto 7 0 rlineto 0 7 rlineto closepath
fill
7 266 moveto
0 -7 rlineto 7 0 rlineto 0 7 rlineto closepath
fill
28 266 moveto
0 -7 rlineto 7 0 rlineto 0 7 rlineto closepath
fill
56 266 moveto
0 -7 rlineto 7 0 rlineto 0 7 rlineto closepath
fill
63 266 moveto
0 -7 rlineto 7 0 rlineto 0 7 rlineto closepath
fill
70 266 moveto
0 -7 rlineto 7 0 rlineto 0 7 rlineto closepath
fill
84 266 moveto
0 -7 rlineto 7 0 rlineto 0 7 rlineto closepath
fill
91 266 moveto
0 -7 rlineto 7 0 rlineto 0 7 rlineto closepath
fill
105 266 moveto
0 -7 rlineto 7 0 rlineto 0 7 rlineto closepath
fill
119 266 moveto
0 -7 rlineto 7 0 rlineto 0 7 rlineto closepath
fill
126 266 moveto
0 -7 rlineto 7 0 rlineto 0 7 rlineto closepath
fill
140 266 moveto
0 -7 rlineto 7 0 rlineto 0 7 rlineto closepath
fill
147 266 moveto
0 -7 rlineto 7 0 rlineto 0 7 rlineto closepath
fill
154 266 moveto
0 -7 rlineto 7 0 rlineto 0 7 rlineto closepath
fill
175 266 moveto
0 -7 rlineto 7 0 rlineto 0 7 rlineto closepath
fill
189 266 moveto
0 -7 rlineto 7 0 rlineto 0 7 rlineto closepath
fill
196 266 moveto
0 -7 rlineto 7 0 rlineto 0 7 rlineto closepath
fill
203 266 moveto
0 -7 rlineto 7 0 rlineto 0 7 rlineto closepath
fill
210 266 moveto
0 -7 rlineto 7 0 rlineto 0 7 rlineto closepath
fill
224 266 moveto
0 -7 rlineto 7 0 rlineto 0 7 rlineto closepath
fill
245 266 moveto
0 -7 rlineto 7 0 rlineto 0 7 rlineto closepath
fill
252 266 moveto
0 -7 rlineto 7 0 rlineto 0 7 rlineto closepath
fill
266 266 moveto
0 -7 rlineto 7 0 rlineto 0 7 rlineto closepath
fill
273 266 moveto
0 -7 rlineto 7 0 rlineto 0 7 rlineto closepath
fill
294 266 moveto
0 -7 rlineto 7 0 rlineto 0 7 rlineto closepath
fill
315 266 moveto
0 -7 rlineto 7 0 rlineto 0 7 rlineto closepath
fill
322 266 moveto
0 -7 rlineto 7 0 rlineto 0 7 rlineto closepath
fill
329 266 moveto
0 -7 rlineto 7 0 rlineto 0 7 rlineto closepath
fill
364 266 moveto
0 -7 rlineto 7 0 rlineto 0 7 rlineto closepath
fill
0 259 moveto
0 -7 rlineto 7 0 rlineto 0 7 rlineto closepath
fill
7 259 moveto
0 -7 rlineto 7 0 rlineto 0 7 rlineto closepath
fill
14 259 moveto
0 -7 rlineto 7 0 rlineto 0 7 rlineto closepath
fill
21 259 moveto
0 -7 rlineto 7 0 rlineto 0 7 rlineto closepath
fill
28 259 moveto
0 -7 rlineto 7 0 rlineto 0 7 rlineto closepath
fill
42 259 moveto
0 -7 rlineto 7 0 rlineto 0 7 rlineto closepath
fill
56 259 moveto
0 -7 rlineto 7 0 rlineto 0 7 rlineto closepath
fill
63 259 moveto
0 -7 rlineto 7 0 rlineto 0 7 rlineto closepath
fill
84 259 moveto
0 -7 rlineto 7 0 rlineto 0 7 rlineto closepath
fill
91 259 moveto
0 -7 rlineto 7 0 rlineto 0 7 rlineto closepath
fill
98 259 moveto
0 -7 rlineto 7 0 rlineto 0 7 rlineto closepath
fill
105 259 moveto
0 -7 rlineto 7 0 rlineto 0 7 rlineto closepath
fill
119 259 moveto
0 -7 rlineto 7 0 rlineto 0 7 rlineto closepath
fill
133 259 moveto
0 -7 rlineto 7 0 rlineto 0 7 rlineto closepath
fill
140 259 moveto
0 -7 rlineto 7 0 rlineto 0 7 rlineto closepath
fill
161 259 moveto
0 -7 rlineto 7 0 rlineto 0 7 rlineto closepath
fill
175 259 moveto
0 -7 rlineto 7 0 rlineto 0 7 rlineto closepath
fill
182 259 moveto
0 -7 rlineto 7 0 rlineto 0 7 rlineto closepath
fill
203 259 moveto
0 -7 rlineto 7 0 rlineto 0 7 rlineto closepath
fill
210 259 moveto
0 -7 rlineto 7 0 rlineto 0 7 rlineto closepath
fill
224 259 moveto
0 -7 rlineto 7 0 rlineto 0 7 rlineto closepath
fill
231 259 moveto
0 -7 rlineto 7 0 rlineto 0 7 rlineto closepath
fill
238 259 moveto
0 -7 rlineto 7 0 rlineto 0 7 rlineto closepath
fill
245 259 moveto
0 -7 rlineto 7 0 rlineto 0 7 rlineto closepath
fill
252 259 moveto
0 -7 rlineto 7 0 rlineto 0 7 rlineto closepath
fill
259 259 moveto
0 -7 rlineto 7 0 rlineto 0 7 rlineto closepath
fill
273 259 moveto
0 -7 rlineto 7 0 rlineto 0 7 rlineto closepath
fill
322 259 moveto
0 -7 rlineto 7 0 rlineto 0 7 rlineto closepath
fill
329 259 moveto
0 -7 rlineto 7 0 rlineto 0 7 rlineto closepath
fill
336 259 moveto
0 -7 rlineto 7 0 rlineto 0 7 rlineto closepath
fill
364 259 moveto
0 -7 rlineto 7 0 rlineto 0 7 rlineto closepath
fill
0 252 moveto
0 -7 rlineto 7 0 rlineto 0 7 rlineto closepath
fill
7 252 moveto
0 -7 rlineto 7 0 rlineto 0 7 rlineto closepath
fill
28 252 moveto
0 -7 rlineto 7 0 rlineto 0 7 rlineto closepath
fill
49 252 moveto
0 -7 rlineto 7 0 rlineto 0 7 rlineto closepath
fill
98 252 moveto
0 -7 rlineto 7 0 rlineto 0 7 rlineto closepath
fill
126 252 moveto
0 -7 rlineto 7 0 rlineto 0 7 rlineto closepath
fill
168 252 moveto
0 -7 rlineto 7 0 rlineto 0 7 rlineto closepath
fill
182 252 moveto
0 -7 rlineto 7 0 rlineto 0 7 rlineto closepath
fill
189 252 moveto
0 -7 rlineto 7 0 rlineto 0 7 rlineto closepath
fill
203 252 moveto
0 -7 rlineto 7 0 rlineto 0 7 rlineto closepath
fill
210 252 moveto
0 -7 rlineto 7 0 rlineto 0 7 rlineto closepath
fill
231 252 moveto
0 -7 rlineto 7 0 rlineto 0 7 rlineto closepath
fill
266 252 moveto
0 -7 rlineto 7 0 rlineto 0 7 rlineto closepath
fill
273 252 moveto
0 -7 rlineto 7 0 rlineto 0 7 rlineto closepath
fill
294 252 moveto
0 -7 rlineto 7 0 rlineto 0 7 rlineto closepath
fill
301 252 moveto
0 -7 rlineto 7 0 rlineto 0 7 rlineto closepath
fill
308 252 moveto
0 -7 rlineto 7 0 rlineto 0 7 rlineto closepath
fill
315 252 moveto
0 -7 rlineto 7 0 rlineto 0 7 rlineto closepath
fill
350 252 moveto
0 -7 rlineto 7 0 rlineto 0 7 rlineto closepath
fill
21 245 moveto
0 -7 rlineto 7 0 rlineto 0 7 rlineto closepath
fill
35 245 moveto
0 -7 rlineto 7 0 rlineto 0 7 rlineto closepath
fill
42 245 moveto
0 -7 rlineto 7 0 rlineto 0 7 rlineto closepath
fill
56 245 moveto
0 -7 rlineto 7 0 rlineto 0 7 rlineto closepath
fill
63 245 moveto
0 -7 rlineto 7 0 rlineto 0 7 rlineto closepath
fill
91 245 moveto
0 -7 rlineto 7 0 rlineto 0 7 rlineto closepath
fill
112 245 moveto
0 -7 rlineto 7 0 rlineto 0 7 rlineto closepath
fill
119 245 moveto
0 -7 rlineto 7 0 rlineto 0 7 rlineto closepath
fill
140 245 moveto
0 -7 rlineto 7 0 rlineto 0 7 rlineto closepath
fill
154 245 moveto
0 -7 rlineto 7 0 rlineto 0 7 rlineto closepath
fill
161 245 moveto
0 -7 rlineto 7 0 rlineto 0 7 rlineto closepath
fill
175 245 moveto
0 -7 rlineto 7 0 rlineto 0 7 rlineto closepath
fill
196 245 moveto
0 -7 rlineto 7 0 rlineto 0 7 rlineto closepath
fill
203 245 moveto
0 -7 rlineto 7 0 rlineto 0 7 rlineto closepath
fill
210 245 moveto
0 -7 rlineto 7 0 rlineto 0 7 rlineto closepath
fill
217 245 moveto
0 -7 rlineto 7 0 rlineto 0 7 rlineto closepath
fill
224 245 moveto
0 -7 rlineto 7 0 rlineto 0 7 rlineto closepath
fill
245 245 moveto
0 -7 rlineto 7 0 rlineto 0 7 rlineto closepath
fill
273 245 moveto
0 -7 rlineto 7 0 rlineto 0 7 rlineto closepath
fill
294 245 moveto
0 -7 rlineto 7 0 rlineto 0 7 rlineto closepath
fill
308 245 moveto
0 -7 rlineto 7 0 rlineto 0 7 rlineto closepath
fill
322 245 moveto
0 -7 rlineto 7 0 rlineto 0 7 rlineto closepath
fill
343 245 moveto
0 -7 rlineto 7 0 rlineto 0 7 rlineto closepath
fill
364 245 moveto
0 -7 rlineto 7 0 rlineto 0 7 rlineto closepath
fill
0 238 moveto
0 -7 rlineto 7 0 rlineto 0 7 rlineto closepath
fill
7 238 moveto
0 -7 rlineto 7 0 rlineto 0 7 rlineto closepath
fill
21 238 moveto
0 -7 rlineto 7 0 rlineto 0 7 rlineto closepath
fill
28 238 moveto
0 -7 rlineto 7 0 rlineto 0 7 rlineto closepath
fill
35 238 moveto
0 -7 rlineto 7 0 rlineto 0 7 rlineto closepath
fill
63 238 moveto
0 -7 rlineto 7 0 rlineto 0 7 rlineto closepath
fill
70 238 moveto
0 -7 rlineto 7 0 rlineto 0 7 rlineto closepath
fill
84 238 moveto
0 -7 rlineto 7 0 rlineto 0 7 rlineto closepath
fill
91 238 moveto
0 -7 rlineto 7 0 rlineto 0 7 rlineto closepath
fill
105 238 moveto
0 -7 rlineto 7 0 rlineto 0 7 rlineto closepath
fill
112 238 moveto
0 -7 rlineto 7 0 rlineto 0 7 rlineto closepath
fill
126 238 moveto
0 -7 rlineto 7 0 rlineto 0 7 rlineto closepath
fill
133 238 moveto
0 -7 rlineto 7 0 rlineto 0 7 rlineto closepath
fill
140 238 moveto
0 -7 rlineto 7 0 rlineto 0 7 rlineto closepath
fill
154 238 moveto
0 -7 rlineto 7 0 rlineto 0 7 rlineto closepath
fill
175 238 moveto
0 -7 rlineto 7 0 rlineto 0 7 rlineto closepath
fill
189 238 moveto
0 -7 rlineto 7 0 rlineto 0 7 rlineto closepath
fill
210 238 moveto
0 -7 rlineto 7 0 rlineto 0 7 rlineto closepath
fill
224 238 moveto
0 -7 rlineto 7 0 rlineto 0 7 rlineto closepath
fill
231 238 moveto
0 -7 rlineto 7 0 rlineto 0 7 rlineto closepath
fill
238 238 moveto
0 -7 rlineto 7 0 rlineto 0 7 rlineto closepath
fill
245 238 moveto
0 -7 rlineto 7 0 rlineto 0 7 rlineto closepath
fill
252 238 moveto
0 -7 rlineto 7 0 rlineto 0 7 rlineto closepath
fill
259 238 moveto
0 -7 rlineto 7 0 rlineto 0 7 rlineto closepath
fill
273 238 moveto
0 -7 rlineto 7 0 rlineto 0 7 rlineto closepath
fill
280 238 moveto
0 -7 rlineto 7 0 rlineto 0 7 rlineto closepath
fill
301 238 moveto
0 -7 rlineto 7 0 rlineto 0 7 rlineto closepath
fill
308 238 moveto
0 -7 rlineto 7 0 rlineto 0 7 rlineto closepath
fill
315 238 moveto
0 -7 rlineto 7 0 rlineto 0 7 rlineto closepath
fill
329 238 moveto
0 -7 rlineto 7 0 rlineto 0 7 rlineto closepath
fill
0 231 moveto
0 -7 rlineto 7 0 rlineto 0 7 rlineto closepath
fill
7 231 moveto
0 -7 rlineto 7 0 rlineto 0 7 rlineto closepath
fill
14 231 moveto
0 -7 rlineto 7 0 rlineto 0 7 rlineto closepath
fill
28 231 moveto
0 -7 rlineto 7 0 rlineto 0 7 rlineto closepath
fill
35 231 moveto
0 -7 rlineto 7 0 rlineto 0 7 rlineto closepath
fill
42 231 moveto
0 -7 rlineto 7 0 rlineto 0 7 rlineto closepath
fill
49 231 moveto
0 -7 rlineto 7 0 rlineto 0 7 rlineto closepath
fill
56 231 moveto
0 -7 rlineto 7 0 rlineto 0 7 rlineto closepath
fill
63 231 moveto
0 -7 rlineto 7 0 rlineto 0 7 rlineto closepath
fill
98 231 moveto
0 -7 rlineto 7 0 rlineto 0 7 rlineto closepath
fill
112 231 moveto
0 -7 rlineto 7 0 rlineto 0 7 rlineto closepath
fill
119 231 moveto
0 -7 rlineto 7 0 rlineto 0 7 rlineto closepath
fill
126 231 moveto
0 -7 rlineto 7 0 rlineto 0 7 rlineto closepath
fill
147 231 moveto
0 -7 rlineto 7 0 rlineto 0 7 rlineto closepath
fill
175 231 moveto
0 -7 rlineto 7 0 rlineto 0 7 rlineto closepath
fill
189 231 moveto
0 -7 rlineto 7 0 rlineto 0 7 rlineto closepath
fill
217 231 moveto
0 -7 rlineto 7 0 rlineto 0 7 rlineto closepath
fill
224 231 moveto
0 -7 rlineto 7 0 rlineto 0 7 rlineto closepath
fill
231 231 moveto
0 -7 rlineto 7 0 rlineto 0 7 rlineto closepath
fill
238 231 moveto
0 -7 rlineto 7 0 rlineto 0 7 rlineto closepath
fill
245 231 moveto
0 -7 rlineto 7 0 rlineto 0 7 rlineto closepath
fill
252 231 moveto
0 -7 rlineto 7 0 rlineto 0 7 rlineto closepath
fill
259 231 moveto
0 -7 rlineto 7 0 rlineto 0 7 rlineto closepath
fill
266 231 moveto
0 -7 rlineto 7 0 rlineto 0 7 rlineto closepath
fill
273 231 moveto
0 -7 rlineto 7 0 rlineto 0 7 rlineto closepath
fill
287 231 moveto
0 -7 rlineto 7 0 rlineto 0 7 rlineto closepath
fill
294 231 moveto
0 -7 rlineto 7 0 rlineto 0 7 rlineto closepath
fill
301 231 moveto
0 -7 rlineto 7 0 rlineto 0 7 rlineto closepath
fill
308 231 moveto
0 -7 rlineto 7 0 rlineto 0 7 rlineto closepath
fill
322 231 moveto
0 -7 rlineto 7 0 rlineto 0 7 rlineto closepath
fill
329 231 moveto
0 -7 rlineto 7 0 rlineto 0 7 rlineto closepath
fill
336 231 moveto
0 -7 rlineto 7 0 rlineto 0 7 rlineto closepath
fill
357 231 moveto
0 -7 rlineto 7 0 rlineto 0 7 rlineto closepath
fill
0 224 moveto
0 -7 rlineto 7 0 rlineto 0 7 rlineto closepath
fill
14 224 moveto
0 -7 rlineto 7 0 rlineto 0 7 rlineto closepath
fill
21 224 moveto
0 -7 rlineto 7 0 rlineto 0 7 rlineto closepath
fill
28 224 moveto
0 -7 rlineto 7 0 rlineto 0 7 rlineto closepath
fill
35 224 moveto
0 -7 rlineto 7 0 rlineto 0 7 rlineto closepath
fill
49 224 moveto
0 -7 rlineto 7 0 rlineto 0 7 rlineto closepath
fill
63 224 moveto
0 -7 rlineto 7 0 rlineto 0 7 rlineto closepath
fill
91 224 moveto
0 -7 rlineto 7 0 rlineto 0 7 rlineto closepath
fill
98 224 moveto
0 -7 rlineto 7 0 rlineto 0 7 rlineto closepath
fill
105 224 moveto
0 -7 rlineto 7 0 rlineto 0 7 rlineto closepath
fill
140 224 moveto
0 -7 rlineto 7 0 rlineto 0 7 rlineto closepath
fill
154 224 moveto
0 -7 rlineto 7 0 rlineto 0 7 rlineto closepath
fill
161 224 moveto
0 -7 rlineto 7 0 rlineto 0 7 rlineto closepath
fill
168 224 moveto
0 -7 rlineto 7 0 rlineto 0 7 rlineto closepath
fill
196 224 moveto
0 -7 rlineto 7 0 rlineto 0 7 rlineto closepath
fill
203 224 moveto
0 -7 rlineto 7 0 rlineto 0 7 rlineto closepath
fill
210 224 moveto
0 -7 rlineto 7 0 rlineto 0 7 rlineto closepath
fill
231 224 moveto
0 -7 rlineto 7 0 rlineto 0 7 rlineto closepath
fill
252 224 moveto
0 -7 rlineto 7 0 rlineto 0 7 rlineto closepath
fill
266 224 moveto
0 -7 rlineto 7 0 rlineto 0 7 rlineto closepath
fill
280 224 moveto
0 -7 rlineto 7 0 rlineto 0 7 rlineto closepath
fill
287 224 moveto
0 -7 rlineto 7 0 rlineto 0 7 rlineto closepath
fill
294 224 moveto
0 -7 rlineto 7 0 rlineto 0 7 rlineto closepath
fill
308 224 moveto
0 -7 rlineto 7 0 rlineto 0 7 rlineto closepath
fill
315 224 moveto
0 -7 rlineto 7 0 rlineto 0 7 rlineto closepath
fill
343 224 moveto
0 -7 rlineto 7 0 rlineto 0 7 rlineto closepath
fill
357 224 moveto
0 -7 rlineto 7 0 rlineto 0 7 rlineto closepath
fill
7 217 moveto
0 -7 rlineto 7 0 rlineto 0 7 rlineto closepath
fill
14 217 moveto
0 -7 rlineto 7 0 rlineto 0 7 rlineto closepath
fill
21 217 moveto
0 -7 rlineto 7 0 rlineto 0 7 rlineto closepath
fill
28 217 moveto
0 -7 rlineto 7 0 rlineto 0 7 rlineto closepath
fill
42 217 moveto
0 -7 rlineto 7 0 rlineto 0 7 rlineto closepath
fill
84 217 moveto
0 -7 rlineto 7 0 rlineto 0 7 rlineto closepath
fill
91 217 moveto
0 -7 rlineto 7 0 rlineto 0 7 rlineto closepath
fill
98 217 moveto
0 -7 rlineto 7 0 rlineto 0 7 rlineto closepath
fill
105 217 moveto
0 -7 rlineto 7 0 rlineto 0 7 rlineto closepath
fill
119 217 moveto
0 -7 rlineto 7 0 rlineto 0 7 rlineto closepath
fill
168 217 moveto
0 -7 rlineto 7 0 rlineto 0 7 rlineto closepath
fill
175 217 moveto
0 -7 rlineto 7 0 rlineto 0 7 rlineto closepath
fill
189 217 moveto
0 -7 rlineto 7 0 rlineto 0 7 rlineto closepath
fill
196 217 moveto
0 -7 rlineto 7 0 rlineto 0 7 rlineto closepath
fill
203 217 moveto
0 -7 rlineto 7 0 rlineto 0 7 rlineto closepath
fill
217 217 moveto
0 -7 rlineto 7 0 rlineto 0 7 rlineto closepath
fill
231 217 moveto
0 -7 rlineto 7 0 rlineto 0 7 rlineto closepath
fill
259 217 moveto
0 -7 rlineto 7 0 rlineto 0 7 rlineto closepath
fill
266 217 moveto
0 -7 rlineto 7 0 rlineto 0 7 rlineto closepath
fill
273 217 moveto
0 -7 rlineto 7 0 rlineto 0 7 rlineto closepath
fill
280 217 moveto
0 -7 rlineto 7 0 rlineto 0 7 rlineto closepath
fill
287 217 moveto
0 -7 rlineto 7 0 rlineto 0 7 rlineto closepath
fill
294 217 moveto
0 -7 rlineto 7 0 rlineto 0 7 rlineto closepath
fill
308 217 moveto
0 -7 rlineto 7 0 rlineto 0 7 rlineto closepath
fill
322 217 moveto
0 -7 rlineto 7 0 rlineto 0 7 rlineto closepath
fill
336 217 moveto
0 -7 rlineto 7 0 rlineto 0 7 rlineto closepath
fill
350 217 moveto
0 -7 rlineto 7 0 rlineto 0 7 rlineto closepath
fill
364 217 moveto
0 -7 rlineto 7 0 rlineto 0 7 rlineto closepath
fill
0 210 moveto
0 -7 rlineto 7 0 rlineto 0 7 rlineto closepath
fill
7 210 moveto
0 -7 rlineto 7 0 rlineto 0 7 rlineto closepath
fill
21 210 moveto
0 -7 rlineto 7 0 rlineto 0 7 rlineto closepath
fill
28 210 moveto
0 -7 rlineto 7 0 rlineto 0 7 rlineto closepath
fill
35 210 moveto
0 -7 rlineto 7 0 rlineto 0 7 rlineto closepath
fill
49 210 moveto
0 -7 rlineto 7 0 rlineto 0 7 rlineto closepath
fill
56 210 moveto
0 -7 rlineto 7 0 rlineto 0 7 rlineto closepath
fill
70 210 moveto
0 -7 rlineto 7 0 rlineto 0 7 rlineto closepath
fill
77 210 moveto
0 -7 rlineto 7 0 rlineto 0 7 rlineto closepath
fill
98 210 moveto
0 -7 rlineto 7 0 rlineto 0 7 rlineto closepath
fill
105 210 moveto
0 -7 rlineto 7 0 rlineto 0 7 rlineto closepath
fill
112 210 moveto
0 -7 rlineto 7 0 rlineto 0 7 rlineto closepath
fill
133 210 moveto
0 -7 rlineto 7 0 rlineto 0 7 rlineto closepath
fill
147 210 moveto
0 -7 rlineto 7 0 rlineto 0 7 rlineto closepath
fill
189 210 moveto
0 -7 rlineto 7 0 rlineto 0 7 rlineto closepath
fill
196 210 moveto
0 -7 rlineto 7 0 rlineto 0 7 rlineto closepath
fill
210 210 moveto
0 -7 rlineto 7 0 rlineto 0 7 rlineto closepath
fill
224 210 moveto
0 -7 rlineto 7 0 rlineto 0 7 rlineto closepath
fill
231 210 moveto
0 -7 rlineto 7 0 rlineto 0 7 rlineto closepath
fill
238 210 moveto
0 -7 rlineto 7 0 rlineto 0 7 rlineto closepath
fill
252 210 moveto
0 -7 rlineto 7 0 rlineto 0 7 rlineto closepath
fill
259 210 moveto
0 -7 rlineto 7 0 rlineto 0 7 rlineto closepath
fill
266 210 moveto
0 -7 rlineto 7 0 rlineto 0 7 rlineto closepath
fill
273 210 moveto
0 -7 rlineto 7 0 rlineto 0 7 rlineto closepath
fill
287 210 moveto
0 -7 rlineto 7 0 rlineto 0 7 rlineto closepath
fill
294 210 moveto
0 -7 rlineto 7 0 rlineto 0 7 rlineto closepath
fill
315 210 moveto
0 -7 rlineto 7 0 rlineto 0 7 rlineto closepath
fill
322 210 moveto
0 -7 rlineto 7 0 rlineto 0 7 rlineto closepath
fill
343 210 moveto
0 -7 rlineto 7 0 rlineto 0 7 rlineto closepath
fill
357 210 moveto
0 -7 rlineto 7 0 rlineto 0 7 rlineto closepath
fill
364 210 moveto
0 -7 rlineto 7 0 rlineto 0 7 rlineto closepath
fill
0 203 moveto
0 -7 rlineto 7 0 rlineto 0 7 rlineto closepath
fill
28 203 moveto
0 -7 rlineto 7 0 rlineto 0 7 rlineto closepath
fill
35 203 moveto
0 -7 rlineto 7 0 rlineto 0 7 rlineto closepath
fill
42 203 moveto
0 -7 rlineto 7 0 rlineto 0 7 rlineto closepath
fill
49 203 moveto
0 -7 rlineto 7 0 rlineto 0 7 rlineto closepath
fill
56 203 moveto
0 -7 rlineto 7 0 rlineto 0 7 rlineto closepath
fill
70 203 moveto
0 -7 rlineto 7 0 rlineto 0 7 rlineto closepath
fill
77 203 moveto
0 -7 rlineto 7 0 rlineto 0 7 rlineto closepath
fill
84 203 moveto
0 -7 rlineto 7 0 rlineto 0 7 rlineto closepath
fill
126 203 moveto
0 -7 rlineto 7 0 rlineto 0 7 rlineto closepath
fill
140 203 moveto
0 -7 rlineto 7 0 rlineto 0 7 rlineto closepath
fill
147 203 moveto
0 -7 rlineto 7 0 rlineto 0 7 rlineto closepath
fill
154 203 moveto
0 -7 rlineto 7 0 rlineto 0 7 rlineto closepath
fill
161 203 moveto
0 -7 rlineto 7 0 rlineto 0 7 rlineto closepath
fill
168 203 moveto
0 -7 rlineto 7 0 rlineto 0 7 rlineto closepath
fill
175 203 moveto
0 -7 rlineto 7 0 rlineto 0 7 rlineto closepath
fill
182 203 moveto
0 -7 rlineto 7 0 rlineto 0 7 rlineto closepath
fill
189 203 moveto
0 -7 rlineto 7 0 rlineto 0 7 rlineto closepath
fill
196 203 moveto
0 -7 rlineto 7 0 rlineto 0 7 rlineto closepath
fill
203 203 moveto
0 -7 rlineto 7 0 rlineto 0 7 rlineto closepath
fill
224 203 moveto
0 -7 rlineto 7 0 rlineto 0 7 rlineto closepath
fill
238 203 moveto
0 -7 rlineto 7 0 rlineto 0 7 rlineto closepath
fill
245 203 moveto
0 -7 rlineto 7 0 rlineto 0 7 rlineto closepath
fill
252 203 moveto
0 -7 rlineto 7 0 rlineto 0 7 rlineto closepath
fill
273 203 moveto
0 -7 rlineto 7 0 rlineto 0 7 rlineto closepath
fill
301 203 moveto
0 -7 rlineto 7 0 rlineto 0 7 rlineto closepath
fill
308 203 moveto
0 -7 rlineto 7 0 rlineto 0 7 rlineto closepath
fill
315 203 moveto
0 -7 rlineto 7 0 rlineto 0 7 rlineto closepath
fill
322 203 moveto
0 -7 rlineto 7 0 rlineto 0 7 rlineto closepath
fill
329 203 moveto
0 -7 rlineto 7 0 rlineto 0 7 rlineto closepath
fill
336 203 moveto
0 -7 rlineto 7 0 rlineto 0 7 rlineto closepath
fill
350 203 moveto
0 -7 rlineto 7 0 rlineto 0 7 rlineto closepath
fill
357 203 moveto
0 -7 rlineto 7 0 rlineto 0 7 rlineto closepath
fill
0 196 moveto
0 -7 rlineto 7 0 rlineto 0 7 rlineto closepath
fill
14 196 moveto
0 -7 rlineto 7 0 rlineto 0 7 rlineto closepath
fill
28 196 moveto
0 -7 rlineto 7 0 rlineto 0 7 rlineto closepath
fill
56 196 moveto
0 -7 rlineto 7 0 rlineto 0 7 rlineto closepath
fill
63 196 moveto
0 -7 rlineto 7 0 rlineto 0 7 rlineto closepath
fill
70 196 moveto
0 -7 rlineto 7 0 rlineto 0 7 rlineto closepath
fill
91 196 moveto
0 -7 rlineto 7 0 rlineto 0 7 rlineto closepath
fill
98 196 moveto
0 -7 rlineto 7 0 rlineto 0 7 rlineto closepath
fill
105 196 moveto
0 -7 rlineto 7 0 rlineto 0 7 rlineto closepath
fill
112 196 moveto
0 -7 rlineto 7 0 rlineto 0 7 rlineto closepath
fill
119 196 moveto
0 -7 rlineto 7 0 rlineto 0 7 rlineto closepath
fill
126 196 moveto
0 -7 rlineto 7 0 rlineto 0 7 rlineto closepath
fill
133 196 moveto
0 -7 rlineto 7 0 rlineto 0 7 rlineto closepath
fill
140 196 moveto
0 -7 rlineto 7 0 rlineto 0 7 rlineto closepath
fill
161 196 moveto
0 -7 rlineto 7 0 rlineto 0 7 rlineto closepath
fill
168 196 moveto
0 -7 rlineto 7 0 rlineto 0 7 rlineto closepath
fill
196 196 moveto
0 -7 rlineto 7 0 rlineto 0 7 rlineto closepath
fill
203 196 moveto
0 -7 rlineto 7 0 rlineto 0 7 rlineto closepath
fill
210 196 moveto
0 -7 rlineto 7 0 rlineto 0 7 rlineto closepath
fill
224 196 moveto
0 -7 rlineto 7 0 rlineto 0 7 rlineto closepath
fill
252 196 moveto
0 -7 rlineto 7 0 rlineto 0 7 rlineto closepath
fill
266 196 moveto
0 -7 rlineto 7 0 rlineto 0 7 rlineto closepath
fill
273 196 moveto
0 -7 rlineto 7 0 rlineto 0 7 rlineto closepath
fill
287 196 moveto
0 -7 rlineto 7 0 rlineto 0 7 rlineto closepath
fill
294 196 moveto
0 -7 rlineto 7 0 rlineto 0 7 rlineto closepath
fill
308 196 moveto
0 -7 rlineto 7 0 rlineto 0 7 rlineto closepath
fill
336 196 moveto
0 -7 rlineto 7 0 rlineto 0 7 rlineto closepath
fill
7 189 moveto
0 -7 rlineto 7 0 rlineto 0 7 rlineto closepath
fill
28 189 moveto
0 -7 rlineto 7 0 rlineto 0 7 rlineto closepath
fill
42 189 moveto
0 -7 rlineto 7 0 rlineto 0 7 rlineto closepath
fill
56 189 moveto
0 -7 rlineto 7 0 rlineto 0 7 rlineto closepath
fill
70 189 moveto
0 -7 rlineto 7 0 rlineto 0 7 rlineto closepath
fill
91 189 moveto
0 -7 rlineto 7 0 rlineto 0 7 rlineto closepath
fill
98 189 moveto
0 -7 rlineto 7 0 rlineto 0 7 rlineto closepath
fill
105 189 moveto
0 -7 rlineto 7 0 rlineto 0 7 rlineto closepath
fill
126 189 moveto
0 -7 rlineto 7 0 rlineto 0 7 rlineto closepath
fill
133 189 moveto
0 -7 rlineto 7 0 rlineto 0 7 rlineto closepath
fill
168 189 moveto
0 -7 rlineto 7 0 rlineto 0 7 rlineto closepath
fill
182 189 moveto
0 -7 rlineto 7 0 rlineto 0 7 rlineto closepath
fill
196 189 moveto
0 -7 rlineto 7 0 rlineto 0 7 rlineto closepath
fill
203 189 moveto
0 -7 rlineto 7 0 rlineto 0 7 rlineto closepath
fill
210 189 moveto
0 -7 rlineto 7 0 rlineto 0 7 rlineto closepath
fill
224 189 moveto
0 -7 rlineto 7 0 rlineto 0 7 rlineto closepath
fill
231 189 moveto
0 -7 rlineto 7 0 rlineto 0 7 rlineto closepath
fill
259 189 moveto
0 -7 rlineto 7 0 rlineto 0 7 rlineto closepath
fill
273 189 moveto
0 -7 rlineto 7 0 rlineto 0 7 rlineto closepath
fill
280 189 moveto
0 -7 rlineto 7 0 rlineto 0 7 rlineto closepath
fill
287 189 moveto
0 -7 rlineto 7 0 rlineto 0 7 rlineto closepath
fill
308 189 moveto
0 -7 rlineto 7 0 rlineto 0 7 rlineto closepath
fill
322 189 moveto
0 -7 rlineto 7 0 rlineto 0 7 rlineto closepath
fill
336 189 moveto
0 -7 rlineto 7 0 rlineto 0 7 rlineto closepath
fill
343 189 moveto
0 -7 rlineto 7 0 rlineto 0 7 rlineto closepath
fill
364 189 moveto
0 -7 rlineto 7 0 rlineto 0 7 rlineto closepath
fill
7 182 moveto
0 -7 rlineto 7 0 rlineto 0 7 rlineto closepath
fill
21 182 moveto
0 -7 rlineto 7 0 rlineto 0 7 rlineto closepath
fill
28 182 moveto
0 -7 rlineto 7 0 rlineto 0 7 rlineto closepath
fill
56 182 moveto
0 -7 rlineto 7 0 rlineto 0 7 rlineto closepath
fill
70 182 moveto
0 -7 rlineto 7 0 rlineto 0 7 rlineto closepath
fill
91 182 moveto
0 -7 rlineto 7 0 rlineto 0 7 rlineto closepath
fill
126 182 moveto
0 -7 rlineto 7 0 rlineto 0 7 rlineto closepath
fill
147 182 moveto
0 -7 rlineto 7 0 rlineto 0 7 rlineto closepath
fill
168 182 moveto
0 -7 rlineto 7 0 rlineto 0 7 rlineto closepath
fill
196 182 moveto
0 -7 rlineto 7 0 rlineto 0 7 rlineto closepath
fill
210 182 moveto
0 -7 rlineto 7 0 rlineto 0 7 rlineto closepath
fill
224 182 moveto
0 -7 rlineto 7 0 rlineto 0 7 rlineto closepath
fill
252 182 moveto
0 -7 rlineto 7 0 rlineto 0 7 rlineto closepath
fill
280 182 moveto
0 -7 rlineto 7 0 rlineto 0 7 rlineto closepath
fill
308 182 moveto
0 -7 rlineto 7 0 rlineto 0 7 rlineto closepath
fill
336 182 moveto
0 -7 rlineto 7 0 rlineto 0 7 rlineto closepath
fill
343 182 moveto
0 -7 rlineto 7 0 rlineto 0 7 rlineto closepath
fill
364 182 moveto
0 -7 rlineto 7 0 rlineto 0 7 rlineto closepath
fill
7 175 moveto
0 -7 rlineto 7 0 rlineto 0 7 rlineto closepath
fill
28 175 moveto
0 -7 rlineto 7 0 rlineto 0 7 rlineto closepath
fill
35 175 moveto
0 -7 rlineto 7 0 rlineto 0 7 rlineto closepath
fill
42 175 moveto
0 -7 rlineto 7 0 rlineto 0 7 rlineto closepath
fill
49 175 moveto
0 -7 rlineto 7 0 rlineto 0 7 rlineto closepath
fill
56 175 moveto
0 -7 rlineto 7 0 rlineto 0 7 rlineto closepath
fill
63 175 moveto
0 -7 rlineto 7 0 rlineto 0 7 rlineto closepath
fill
84 175 moveto
0 -7 rlineto 7 0 rlineto 0 7 rlineto closepath
fill
98 175 moveto
0 -7 rlineto 7 0 rlineto 0 7 rlineto closepath
fill
105 175 moveto
0 -7 rlineto 7 0 rlineto 0 7 rlineto closepath
fill
112 175 moveto
0 -7 rlineto 7 0 rlineto 0 7 rlineto closepath
fill
119 175 moveto
0 -7 rlineto 7 0 rlineto 0 7 rlineto closepath
fill
126 175 moveto
0 -7 rlineto 7 0 rlineto 0 7 rlineto closepath
fill
147 175 moveto
0 -7 rlineto 7 0 rlineto 0 7 rlineto closepath
fill
161 175 moveto
0 -7 rlineto 7 0 rlineto 0 7 rlineto closepath
fill
168 175 moveto
0 -7 rlineto 7 0 rlineto 0 7 rlineto closepath
fill
175 175 moveto
0 -7 rlineto 7 0 rlineto 0 7 rlineto closepath
fill
182 175 moveto
0 -7 rlineto 7 0 rlineto 0 7 rlineto closepath
fill
189 175 moveto
0 -7 rlineto 7 0 rlineto 0 7 rlineto closepath
fill
196 175 moveto
0 -7 rlineto 7 0 rlineto 0 7 rlineto closepath
fill
224 175 moveto
0 -7 rlineto 7 0 rlineto 0 7 rlineto closepath
fill
231 175 moveto
0 -7 rlineto 7 0 rlineto 0 7 rlineto closepath
fill
238 175 moveto
0 -7 rlineto 7 0 rlineto 0 7 rlineto closepath
fill
245 175 moveto
0 -7 rlineto 7 0 rlineto 0 7 rlineto closepath
fill
252 175 moveto
0 -7 rlineto 7 0 rlineto 0 7 rlineto closepath
fill
259 175 moveto
0 -7 rlineto 7 0 rlineto 0 7 rlineto closepath
fill
266 175 moveto
0 -7 rlineto 7 0 rlineto 0 7 rlineto closepath
fill
273 175 moveto
0 -7 rlineto 7 0 rlineto 0 7 rlineto closepath
fill
287 175 moveto
0 -7 rlineto 7 0 rlineto 0 7 rlineto closepath
fill
308 175 moveto
0 -7 rlineto 7 0 rlineto 0 7 rlineto closepath
fill
315 175 moveto
0 -7 rlineto 7 0 rlineto 0 7 rlineto closepath
fill
322 175 moveto
0 -7 rlineto 7 0 rlineto 0 7 rlineto closepath
fill
329 175 moveto
0 -7 rlineto 7 0 rlineto 0 7 rlineto closepath
fill
336 175 moveto
0 -7 rlineto 7 0 rlineto 0 7 rlineto closepath
fill
343 175 moveto
0 -7 rlineto 7 0 rlineto 0 7 rlineto closepath
fill
350 175 moveto
0 -7 rlineto 7 0 rlineto 0 7 rlineto closepath
fill
357 175 moveto
0 -7 rlineto 7 0 rlineto 0 7 rlineto closepath
fill
7 168 moveto
0 -7 rlineto 7 0 rlineto 0 7 rlineto closepath
fill
14 168 moveto
0 -7 rlineto 7 0 rlineto 0 7 rlineto closepath
fill
49 168 moveto
0 -7 rlineto 7 0 rlineto 0 7 rlineto closepath
fill
56 168 moveto
0 -7 rlineto 7 0 rlineto 0 7 rlineto closepath
fill
77 168 moveto
0 -7 rlineto 7 0 rlineto 0 7 rlineto closepath
fill
84 168 moveto
0 -7 rlineto 7 0 rlineto 0 7 rlineto closepath
fill
91 168 moveto
0 -7 rlineto 7 0 rlineto 0 7 rlineto closepath
fill
98 168 moveto
0 -7 rlineto 7 0 rlineto 0 7 rlineto closepath
fill
105 168 moveto
0 -7 rlineto 7 0 rlineto 0 7 rlineto closepath
fill
119 168 moveto
0 -7 rlineto 7 0 rlineto 0 7 rlineto closepath
fill
140 168 moveto
0 -7 rlineto 7 0 rlineto 0 7 rlineto closepath
fill
154 168 moveto
0 -7 rlineto 7 0 rlineto 0 7 rlineto closepath
fill
175 168 moveto
0 -7 rlineto 7 0 rlineto 0 7 rlineto closepath
fill
182 168 moveto
0 -7 rlineto 7 0 rlineto 0 7 rlineto closepath
fill
189 168 moveto
0 -7 rlineto 7 0 rlineto 0 7 rlineto closepath
fill
196 168 moveto
0 -7 rlineto 7 0 rlineto 0 7 rlineto closepath
fill
203 168 moveto
0 -7 rlineto 7 0 rlineto 0 7 rlineto closepath
fill
210 168 moveto
0 -7 rlineto 7 0 rlineto 0 7 rlineto closepath
fill
224 168 moveto
0 -7 rlineto 7 0 rlineto 0 7 rlineto closepath
fill
231 168 moveto
0 -7 rlineto 7 0 rlineto 0 7 rlineto closepath
fill
245 168 moveto
0 -7 rlineto 7 0 rlineto 0 7 rlineto closepath
fill
252 168 moveto
0 -7 rlineto 7 0 rlineto 0 7 rlineto closepath
fill
266 168 moveto
0 -7 rlineto 7 0 rlineto 0 7 rlineto closepath
fill
273 168 moveto
0 -7 rlineto 7 0 rlineto 0 7 rlineto closepath
fill
287 168 moveto
0 -7 rlineto 7 0 rlineto 0 7 rlineto closepath
fill
294 168 moveto
0 -7 rlineto 7 0 rlineto 0 7 rlineto closepath
fill
308 168 moveto
0 -7 rlineto 7 0 rlineto 0 7 rlineto closepath
fill
315 168 moveto
0 -7 rlineto 7 0 rlineto 0 7 rlineto closepath
fill
322 168 moveto
0 -7 rlineto 7 0 rlineto 0 7 rlineto closepath
fill
329 168 moveto
0 -7 rlineto 7 0 rlineto 0 7 rlineto closepath
fill
336 168 moveto
0 -7 rlineto 7 0 rlineto 0 7 rlineto closepath
fill
350 168 moveto
0 -7 rlineto 7 0 rlineto 0 7 rlineto closepath
fill
357 168 moveto
0 -7 rlineto 7 0 rlineto 0 7 rlineto closepath
fill
0 161 moveto
0 -7 rlineto 7 0 rlineto 0 7 rlineto closepath
fill
7 161 moveto
0 -7 rlineto 7 0 rlineto 0 7 rlineto closepath
fill
28 161 moveto
0 -7 rlineto 7 0 rlineto 0 7 rlineto closepath
fill
35 161 moveto
0 -7 rlineto 7 0 rlineto 0 7 rlineto closepath
fill
42 161 moveto
0 -7 rlineto 7 0 rlineto 0 7 rlineto closepath
fill
49 161 moveto
0 -7 rlineto 7 0 rlineto 0 7 rlineto closepath
fill
70 161 moveto
0 -7 rlineto 7 0 rlineto 0 7 rlineto closepath
fill
84 161 moveto
0 -7 rlineto 7 0 rlineto 0 7 rlineto closepath
fill
105 161 moveto
0 -7 rlineto 7 0 rlineto 0 7 rlineto closepath
fill
126 161 moveto
0 -7 rlineto 7 0 rlineto 0 7 rlineto closepath
fill
133 161 moveto
0 -7 rlineto 7 0 rlineto 0 7 rlineto closepath
fill
147 161 moveto
0 -7 rlineto 7 0 rlineto 0 7 rlineto closepath
fill
154 161 moveto
0 -7 rlineto 7 0 rlineto 0 7 rlineto closepath
fill
161 161 moveto
0 -7 rlineto 7 0 rlineto 0 7 rlineto closepath
fill
175 161 moveto
0 -7 rlineto 7 0 rlineto 0 7 rlineto closepath
fill
182 161 moveto
0 -7 rlineto 7 0 rlineto 0 7 rlineto closepath
fill
203 161 moveto
0 -7 rlineto 7 0 rlineto 0 7 rlineto closepath
fill
210 161 moveto
0 -7 rlineto 7 0 rlineto 0 7 rlineto closepath
fill
217 161 moveto
0 -7 rlineto 7 0 rlineto 0 7 rlineto closepath
fill
231 161 moveto
0 -7 rlineto 7 0 rlineto 0 7 rlineto closepath
fill
245 161 moveto
0 -7 rlineto 7 0 rlineto 0 7 rlineto closepath
fill
252 161 moveto
0 -7 rlineto 7 0 rlineto 0 7 rlineto closepath
fill
259 161 moveto
0 -7 rlineto 7 0 rlineto 0 7 rlineto closepath
fill
266 161 moveto
0 -7 rlineto 7 0 rlineto 0 7 rlineto closepath
fill
280 161 moveto
0 -7 rlineto 7 0 rlineto 0 7 rlineto closepath
fill
294 161 moveto
0 -7 rlineto 7 0 rlineto 0 7 rlineto closepath
fill
308 161 moveto
0 -7 rlineto 7 0 rlineto 0 7 rlineto closepath
fill
322 161 moveto
0 -7 rlineto 7 0 rlineto 0 7 rlineto closepath
fill
329 161 moveto
0 -7 rlineto 7 0 rlineto 0 7 rlineto closepath
fill
336 161 moveto
0 -7 rlineto 7 0 rlineto 0 7 rlineto closepath
fill
350 161 moveto
0 -7 rlineto 7 0 rlineto 0 7 rlineto closepath
fill
364 161 moveto
0 -7 rlineto 7 0 rlineto 0 7 rlineto closepath
fill
0 154 moveto
0 -7 rlineto 7 0 rlineto 0 7 rlineto closepath
fill
14 154 moveto
0 -7 rlineto 7 0 rlineto 0 7 rlineto closepath
fill
28 154 moveto
0 -7 rlineto 7 0 rlineto 0 7 rlineto closepath
fill
35 154 moveto
0 -7 rlineto 7 0 rlineto 0 7 rlineto closepath
fill
49 154 moveto
0 -7 rlineto 7 0 rlineto 0 7 rlineto closepath
fill
77 154 moveto
0 -7 rlineto 7 0 rlineto 0 7 rlineto closepath
fill
84 154 moveto
0 -7 rlineto 7 0 rlineto 0 7 rlineto closepath
fill
91 154 moveto
0 -7 rlineto 7 0 rlineto 0 7 rlineto closepath
fill
112 154 moveto
0 -7 rlineto 7 0 rlineto 0 7 rlineto closepath
fill
119 154 moveto
0 -7 rlineto 7 0 rlineto 0 7 rlineto closepath
fill
126 154 moveto
0 -7 rlineto 7 0 rlineto 0 7 rlineto closepath
fill
140 154 moveto
0 -7 rlineto 7 0 rlineto 0 7 rlineto closepath
fill
154 154 moveto
0 -7 rlineto 7 0 rlineto 0 7 rlineto closepath
fill
189 154 moveto
0 -7 rlineto 7 0 rlineto 0 7 rlineto closepath
fill
196 154 moveto
0 -7 rlineto 7 0 rlineto 0 7 rlineto closepath
fill
210 154 moveto
0 -7 rlineto 7 0 rlineto 0 7 rlineto closepath
fill
224 154 moveto
0 -7 rlineto 7 0 rlineto 0 7 rlineto closepath
fill
231 154 moveto
0 -7 rlineto 7 0 rlineto 0 7 rlineto closepath
fill
238 154 moveto
0 -7 rlineto 7 0 rlineto 0 7 rlineto closepath
fill
252 154 moveto
0 -7 rlineto 7 0 rlineto 0 7 rlineto closepath
fill
273 154 moveto
0 -7 rlineto 7 0 rlineto 0 7 rlineto closepath
fill
287 154 moveto
0 -7 rlineto 7 0 rlineto 0 7 rlineto closepath
fill
294 154 moveto
0 -7 rlineto 7 0 rlineto 0 7 rlineto closepath
fill
301 154 moveto
0 -7 rlineto 7 0 rlineto 0 7 rlineto closepath
fill
308 154 moveto
0 -7 rlineto 7 0 rlineto 0 7 rlineto closepath
fill
315 154 moveto
0 -7 rlineto 7 0 rlineto 0 7 rlineto closepath
fill
322 154 moveto
0 -7 rlineto 7 0 rlineto 0 7 rlineto closepath
fill
329 154 moveto
0 -7 rlineto 7 0 rlineto 0 7 rlineto closepath
fill
336 154 moveto
0 -7 rlineto 7 0 rlineto 0 7 rlineto closepath
fill
343 154 moveto
0 -7 rlineto 7 0 rlineto 0 7 rlineto closepath
fill
21 147 moveto
0 -7 rlineto 7 0 rlineto 0 7 rlineto closepath
fill
35 147 moveto
0 -7 rlineto 7 0 rlineto 0 7 rlineto closepath
fill
42 147 moveto
0 -7 rlineto 7 0 rlineto 0 7 rlineto closepath
fill
63 147 moveto
0 -7 rlineto 7 0 rlineto 0 7 rlineto closepath
fill
70 147 moveto
0 -7 rlineto 7 0 rlineto 0 7 rlineto closepath
fill
77 147 moveto
0 -7 rlineto 7 0 rlineto 0 7 rlineto closepath
fill
91 147 moveto
0 -7 rlineto 7 0 rlineto 0 7 rlineto closepath
fill
98 147 moveto
0 -7 rlineto 7 0 rlineto 0 7 rlineto closepath
fill
105 147 moveto
0 -7 rlineto 7 0 rlineto 0 7 rlineto closepath
fill
119 147 moveto
0 -7 rlineto 7 0 rlineto 0 7 rlineto closepath
fill
133 147 moveto
0 -7 rlineto 7 0 rlineto 0 7 rlineto closepath
fill
140 147 moveto
0 -7 rlineto 7 0 rlineto 0 7 rlineto closepath
fill
161 147 moveto
0 -7 rlineto 7 0 rlineto 0 7 rlineto closepath
fill
168 147 moveto
0 -7 rlineto 7 0 rlineto 0 7 rlineto closepath
fill
182 147 moveto
0 -7 rlineto 7 0 rlineto 0 7 rlineto closepath
fill
189 147 moveto
0 -7 rlineto 7 0 rlineto 0 7 rlineto closepath
fill
210 147 moveto
0 -7 rlineto 7 0 rlineto 0 7 rlineto closepath
fill
224 147 moveto
0 -7 rlineto 7 0 rlineto 0 7 rlineto closepath
fill
245 147 moveto
0 -7 rlineto 7 0 rlineto 0 7 rlineto closepath
fill
252 147 moveto
0 -7 rlineto 7 0 rlineto 0 7 rlineto closepath
fill
259 147 moveto
0 -7 rlineto 7 0 rlineto 0 7 rlineto closepath
fill
273 147 moveto
0 -7 rlineto 7 0 rlineto 0 7 rlineto closepath
fill
287 147 moveto
0 -7 rlineto 7 0 rlineto 0 7 rlineto closepath
fill
301 147 moveto
0 -7 rlineto 7 0 rlineto 0 7 rlineto closepath
fill
336 147 moveto
0 -7 rlineto 7 0 rlineto 0 7 rlineto closepath
fill
343 147 moveto
0 -7 rlineto 7 0 rlineto 0 7 rlineto closepath
fill
350 147 moveto
0 -7 rlineto 7 0 rlineto 0 7 rlineto closepath
fill
364 147 moveto
0 -7 rlineto 7 0 rlineto 0 7 rlineto closepath
fill
0 140 moveto
0 -7 rlineto 7 0 rlineto 0 7 rlineto closepath
fill
7 140 moveto
0 -7 rlineto 7 0 rlineto 0 7 rlineto closepath
fill
14 140 moveto
0 -7 rlineto 7 0 rlineto 0 7 rlineto closepath
fill
35 140 moveto
0 -7 rlineto 7 0 rlineto 0 7 rlineto closepath
fill
56 140 moveto
0 -7 rlineto 7 0 rlineto 0 7 rlineto closepath
fill
70 140 moveto
0 -7 rlineto 7 0 rlineto 0 7 rlineto closepath
fill
98 140 moveto
0 -7 rlineto 7 0 rlineto 0 7 rlineto closepath
fill
126 140 moveto
0 -7 rlineto 7 0 rlineto 0 7 rlineto closepath
fill
147 140 moveto
0 -7 rlineto 7 0 rlineto 0 7 rlineto closepath
fill
161 140 moveto
0 -7 rlineto 7 0 rlineto 0 7 rlineto closepath
fill
175 140 moveto
0 -7 rlineto 7 0 rlineto 0 7 rlineto closepath
fill
203 140 moveto
0 -7 rlineto 7 0 rlineto 0 7 rlineto closepath
fill
210 140 moveto
0 -7 rlineto 7 0 rlineto 0 7 rlineto closepath
fill
231 140 moveto
0 -7 rlineto 7 0 rlineto 0 7 rlineto closepath
fill
266 140 moveto
0 -7 rlineto 7 0 rlineto 0 7 rlineto closepath
fill
280 140 moveto
0 -7 rlineto 7 0 rlineto 0 7 rlineto closepath
fill
287 140 moveto
0 -7 rlineto 7 0 rlineto 0 7 rlineto closepath
fill
294 140 moveto
0 -7 rlineto 7 0 rlineto 0 7 rlineto closepath
fill
301 140 moveto
0 -7 rlineto 7 0 rlineto 0 7 rlineto closepath
fill
322 140 moveto
0 -7 rlineto 7 0 rlineto 0 7 rlineto closepath
fill
329 140 moveto
0 -7 rlineto 7 0 rlineto 0 7 rlineto closepath
fill
336 140 moveto
0 -7 rlineto 7 0 rlineto 0 7 rlineto closepath
fill
343 140 moveto
0 -7 rlineto 7 0 rlineto 0 7 rlineto closepath
fill
21 133 moveto
0 -7 rlineto 7 0 rlineto 0 7 rlineto closepath
fill
35 133 moveto
0 -7 rlineto 7 0 rlineto 0 7 rlineto closepath
fill
42 133 moveto
0 -7 rlineto 7 0 rlineto 0 7 rlineto closepath
fill
63 133 moveto
0 -7 rlineto 7 0 rlineto 0 7 rlineto closepath
fill
112 133 moveto
0 -7 rlineto 7 0 rlineto 0 7 rlineto closepath
fill
140 133 moveto
0 -7 rlineto 7 0 rlineto 0 7 rlineto closepath
fill
147 133 moveto
0 -7 rlineto 7 0 rlineto 0 7 rlineto closepath
fill
161 133 moveto
0 -7 rlineto 7 0 rlineto 0 7 rlineto closepath
fill
182 133 moveto
0 -7 rlineto 7 0 rlineto 0 7 rlineto closepath
fill
189 133 moveto
0 -7 rlineto 7 0 rlineto 0 7 rlineto closepath
fill
203 133 moveto
0 -7 rlineto 7 0 rlineto 0 7 rlineto closepath
fill
210 133 moveto
0 -7 rlineto 7 0 rlineto 0 7 rlineto closepath
fill
231 133 moveto
0 -7 rlineto 7 0 rlineto 0 7 rlineto closepath
fill
238 133 moveto
0 -7 rlineto 7 0 rlineto 0 7 rlineto closepath
fill
252 133 moveto
0 -7 rlineto 7 0 rlineto 0 7 rlineto closepath
fill
273 133 moveto
0 -7 rlineto 7 0 rlineto 0 7 rlineto closepath
fill
280 133 moveto
0 -7 rlineto 7 0 rlineto 0 7 rlineto closepath
fill
294 133 moveto
0 -7 rlineto 7 0 rlineto 0 7 rlineto closepath
fill
308 133 moveto
0 -7 rlineto 7 0 rlineto 0 7 rlineto closepath
fill
322 133 moveto
0 -7 rlineto 7 0 rlineto 0 7 rlineto closepath
fill
329 133 moveto
0 -7 rlineto 7 0 rlineto 0 7 rlineto closepath
fill
336 133 moveto
0 -7 rlineto 7 0 rlineto 0 7 rlineto closepath
fill
343 133 moveto
0 -7 rlineto 7 0 rlineto 0 7 rlineto closepath
fill
364 133 moveto
0 -7 rlineto 7 0 rlineto 0 7 rlineto closepath
fill
7 126 moveto
0 -7 rlineto 7 0 rlineto 0 7 rlineto closepath
fill
14 126 moveto
0 -7 rlineto 7 0 rlineto 0 7 rlineto closepath
fill
28 126 moveto
0 -7 rlineto 7 0 rlineto 0 7 rlineto closepath
fill
63 126 moveto
0 -7 rlineto 7 0 rlineto 0 7 rlineto closepath
fill
84 126 moveto
0 -7 rlineto 7 0 rlineto 0 7 rlineto closepath
fill
91 126 moveto
0 -7 rlineto 7 0 rlineto 0 7 rlineto closepath
fill
105 126 moveto
0 -7 rlineto 7 0 rlineto 0 7 rlineto closepath
fill
112 126 moveto
0 -7 rlineto 7 0 rlineto 0 7 rlineto closepath
fill
133 126 moveto
0 -7 rlineto 7 0 rlineto 0 7 rlineto closepath
fill
140 126 moveto
0 -7 rlineto 7 0 rlineto 0 7 rlineto closepath
fill
154 126 moveto
0 -7 rlineto 7 0 rlineto 0 7 rlineto closepath
fill
182 126 moveto
0 -7 rlineto 7 0 rlineto 0 7 rlineto closepath
fill
189 126 moveto
0 -7 rlineto 7 0 rlineto 0 7 rlineto closepath
fill
196 126 moveto
0 -7 rlineto 7 0 rlineto 0 7 rlineto closepath
fill
217 126 moveto
0 -7 rlineto 7 0 rlineto 0 7 rlineto closepath
fill
224 126 moveto
0 -7 rlineto 7 0 rlineto 0 7 rlineto closepath
fill
245 126 moveto
0 -7 rlineto 7 0 rlineto 0 7 rlineto closepath
fill
252 126 moveto
0 -7 rlineto 7 0 rlineto 0 7 rlineto closepath
fill
280 126 moveto
0 -7 rlineto 7 0 rlineto 0 7 rlineto closepath
fill
287 126 moveto
0 -7 rlineto 7 0 rlineto 0 7 rlineto closepath
fill
301 126 moveto
0 -7 rlineto 7 0 rlineto 0 7 rlineto closepath
fill
315 126 moveto
0 -7 rlineto 7 0 rlineto 0 7 rlineto closepath
fill
329 126 moveto
0 -7 rlineto 7 0 rlineto 0 7 rlineto closepath
fill
343 126 moveto
0 -7 rlineto 7 0 rlineto 0 7 rlineto closepath
fill
357 126 moveto
0 -7 rlineto 7 0 rlineto 0 7 rlineto closepath
fill
14 119 moveto
0 -7 rlineto 7 0 rlineto 0 7 rlineto closepath
fill
42 119 moveto
0 -7 rlineto 7 0 rlineto 0 7 rlineto closepath
fill
49 119 moveto
0 -7 rlineto 7 0 rlineto 0 7 rlineto closepath
fill
63 119 moveto
0 -7 rlineto 7 0 rlineto 0 7 rlineto closepath
fill
77 119 moveto
0 -7 rlineto 7 0 rlineto 0 7 rlineto closepath
fill
98 119 moveto
0 -7 rlineto 7 0 rlineto 0 7 rlineto closepath
fill
112 119 moveto
0 -7 rlineto 7 0 rlineto 0 7 rlineto closepath
fill
119 119 moveto
0 -7 rlineto 7 0 rlineto 0 7 rlineto closepath
fill
126 119 moveto
0 -7 rlineto 7 0 rlineto 0 7 rlineto closepath
fill
133 119 moveto
0 -7 rlineto 7 0 rlineto 0 7 rlineto closepath
fill
147 119 moveto
0 -7 rlineto 7 0 rlineto 0 7 rlineto closepath
fill
182 119 moveto
0 -7 rlineto 7 0 rlineto 0 7 rlineto closepath
fill
203 119 moveto
0 -7 rlineto 7 0 rlineto 0 7 rlineto closepath
fill
210 119 moveto
0 -7 rlineto 7 0 rlineto 0 7 rlineto closepath
fill
224 119 moveto
0 -7 rlineto 7 0 rlineto 0 7 rlineto closepath
fill
231 119 moveto
0 -7 rlineto 7 0 rlineto 0 7 rlineto closepath
fill
245 119 moveto
0 -7 rlineto 7 0 rlineto 0 7 rlineto closepath
fill
252 119 moveto
0 -7 rlineto 7 0 rlineto 0 7 rlineto closepath
fill
273 119 moveto
0 -7 rlineto 7 0 rlineto 0 7 rlineto closepath
fill
287 119 moveto
0 -7 rlineto 7 0 rlineto 0 7 rlineto closepath
fill
301 119 moveto
0 -7 rlineto 7 0 rlineto 0 7 rlineto closepath
fill
308 119 moveto
0 -7 rlineto 7 0 rlineto 0 7 rlineto closepath
fill
322 119 moveto
0 -7 rlineto 7 0 rlineto 0 7 rlineto closepath
fill
336 119 moveto
0 -7 rlineto 7 0 rlineto 0 7 rlineto closepath
fill
343 119 moveto
0 -7 rlineto 7 0 rlineto 0 7 rlineto closepath
fill
350 119 moveto
0 -7 rlineto 7 0 rlineto 0 7 rlineto closepath
fill
14 112 moveto
0 -7 rlineto 7 0 rlineto 0 7 rlineto closepath
fill
21 112 moveto
0 -7 rlineto 7 0 rlineto 0 7 rlineto closepath
fill
49 112 moveto
0 -7 rlineto 7 0 rlineto 0 7 rlineto closepath
fill
63 112 moveto
0 -7 rlineto 7 0 rlineto 0 7 rlineto closepath
fill
77 112 moveto
0 -7 rlineto 7 0 rlineto 0 7 rlineto closepath
fill
91 112 moveto
0 -7 rlineto 7 0 rlineto 0 7 rlineto closepath
fill
98 112 moveto
0 -7 rlineto 7 0 rlineto 0 7 rlineto closepath
fill
105 112 moveto
0 -7 rlineto 7 0 rlineto 0 7 rlineto closepath
fill
119 112 moveto
0 -7 rlineto 7 0 rlineto 0 7 rlineto closepath
fill
140 112 moveto
0 -7 rlineto 7 0 rlineto 0 7 rlineto closepath
fill
147 112 moveto
0 -7 rlineto 7 0 rlineto 0 7 rlineto closepath
fill
154 112 moveto
0 -7 rlineto 7 0 rlineto 0 7 rlineto closepath
fill
161 112 moveto
0 -7 rlineto 7 0 rlineto 0 7 rlineto closepath
fill
168 112 moveto
0 -7 rlineto 7 0 rlineto 0 7 rlineto closepath
fill
175 112 moveto
0 -7 rlineto 7 0 rlineto 0 7 rlineto closepath
fill
182 112 moveto
0 -7 rlineto 7 0 rlineto 0 7 rlineto closepath
fill
189 112 moveto
0 -7 rlineto 7 0 rlineto 0 7 rlineto closepath
fill
196 112 moveto
0 -7 rlineto 7 0 rlineto 0 7 rlineto closepath
fill
203 112 moveto
0 -7 rlineto 7 0 rlineto 0 7 rlineto closepath
fill
210 112 moveto
0 -7 rlineto 7 0 rlineto 0 7 rlineto closepath
fill
217 112 moveto
0 -7 rlineto 7 0 rlineto 0 7 rlineto closepath
fill
245 112 moveto
0 -7 rlineto 7 0 rlineto 0 7 rlineto closepath
fill
259 112 moveto
0 -7 rlineto 7 0 rlineto 0 7 rlineto closepath
fill
266 112 moveto
0 -7 rlineto 7 0 rlineto 0 7 rlineto closepath
fill
280 112 moveto
0 -7 rlineto 7 0 rlineto 0 7 rlineto closepath
fill
294 112 moveto
0 -7 rlineto 7 0 rlineto 0 7 rlineto closepath
fill
308 112 moveto
0 -7 rlineto 7 0 rlineto 0 7 rlineto closepath
fill
315 112 moveto
0 -7 rlineto 7 0 rlineto 0 7 rlineto closepath
fill
336 112 moveto
0 -7 rlineto 7 0 rlineto 0 7 rlineto closepath
fill
343 112 moveto
0 -7 rlineto 7 0 rlineto 0 7 rlineto closepath
fill
350 112 moveto
0 -7 rlineto 7 0 rlineto 0 7 rlineto closepath
fill
357 112 moveto
0 -7 rlineto 7 0 rlineto 0 7 rlineto closepath
fill
364 112 moveto
0 -7 rlineto 7 0 rlineto 0 7 rlineto closepath
fill
0 105 moveto
0 -7 rlineto 7 0 rlineto 0 7 rlineto closepath
fill
7 105 moveto
0 -7 rlineto 7 0 rlineto 0 7 rlineto closepath
fill
21 105 moveto
0 -7 rlineto 7 0 rlineto 0 7 rlineto closepath
fill
42 105 moveto
0 -7 rlineto 7 0 rlineto 0 7 rlineto closepath
fill
56 105 moveto
0 -7 rlineto 7 0 rlineto 0 7 rlineto closepath
fill
63 105 moveto
0 -7 rlineto 7 0 rlineto 0 7 rlineto closepath
fill
70 105 moveto
0 -7 rlineto 7 0 rlineto 0 7 rlineto closepath
fill
77 105 moveto
0 -7 rlineto 7 0 rlineto 0 7 rlineto closepath
fill
91 105 moveto
0 -7 rlineto 7 0 rlineto 0 7 rlineto closepath
fill
98 105 moveto
0 -7 rlineto 7 0 rlineto 0 7 rlineto closepath
fill
112 105 moveto
0 -7 rlineto 7 0 rlineto 0 7 rlineto closepath
fill
119 105 moveto
0 -7 rlineto 7 0 rlineto 0 7 rlineto closepath
fill
133 105 moveto
0 -7 rlineto 7 0 rlineto 0 7 rlineto closepath
fill
140 105 moveto
0 -7 rlineto 7 0 rlineto 0 7 rlineto closepath
fill
161 105 moveto
0 -7 rlineto 7 0 rlineto 0 7 rlineto closepath
fill
175 105 moveto
0 -7 rlineto 7 0 rlineto 0 7 rlineto closepath
fill
182 105 moveto
0 -7 rlineto 7 0 rlineto 0 7 rlineto closepath
fill
210 105 moveto
0 -7 rlineto 7 0 rlineto 0 7 rlineto closepath
fill
231 105 moveto
0 -7 rlineto 7 0 rlineto 0 7 rlineto closepath
fill
259 105 moveto
0 -7 rlineto 7 0 rlineto 0 7 rlineto closepath
fill
266 105 moveto
0 -7 rlineto 7 0 rlineto 0 7 rlineto closepath
fill
273 105 moveto
0 -7 rlineto 7 0 rlineto 0 7 rlineto closepath
fill
287 105 moveto
0 -7 rlineto 7 0 rlineto 0 7 rlineto closepath
fill
294 105 moveto
0 -7 rlineto 7 0 rlineto 0 7 rlineto closepath
fill
301 105 moveto
0 -7 rlineto 7 0 rlineto 0 7 rlineto closepath
fill
322 105 moveto
0 -7 rlineto 7 0 rlineto 0 7 rlineto closepath
fill
329 105 moveto
0 -7 rlineto 7 0 rlineto 0 7 rlineto closepath
fill
343 105 moveto
0 -7 rlineto 7 0 rlineto 0 7 rlineto closepath
fill
350 105 moveto
0 -7 rlineto 7 0 rlineto 0 7 rlineto closepath
fill
357 105 moveto
0 -7 rlineto 7 0 rlineto 0 7 rlineto closepath
fill
364 105 moveto
0 -7 rlineto 7 0 rlineto 0 7 rlineto closepath
fill
0 98 moveto
0 -7 rlineto 7 0 rlineto 0 7 rlineto closepath
fill
21 98 moveto
0 -7 rlineto 7 0 rlineto 0 7 rlineto closepath
fill
28 98 moveto
0 -7 rlineto 7 0 rlineto 0 7 rlineto closepath
fill
49 98 moveto
0 -7 rlineto 7 0 rlineto 0 7 rlineto closepath
fill
56 98 moveto
0 -7 rlineto 7 0 rlineto 0 7 rlineto closepath
fill
63 98 moveto
0 -7 rlineto 7 0 rlineto 0 7 rlineto closepath
fill
70 98 moveto
0 -7 rlineto 7 0 rlineto 0 7 rlineto closepath
fill
98 98 moveto
0 -7 rlineto 7 0 rlineto 0 7 rlineto closepath
fill
105 98 moveto
0 -7 rlineto 7 0 rlineto 0 7 rlineto closepath
fill
112 98 moveto
0 -7 rlineto 7 0 rlineto 0 7 rlineto closepath
fill
147 98 moveto
0 -7 rlineto 7 0 rlineto 0 7 rlineto closepath
fill
161 98 moveto
0 -7 rlineto 7 0 rlineto 0 7 rlineto closepath
fill
168 98 moveto
0 -7 rlineto 7 0 rlineto 0 7 rlineto closepath
fill
189 98 moveto
0 -7 rlineto 7 0 rlineto 0 7 rlineto closepath
fill
196 98 moveto
0 -7 rlineto 7 0 rlineto 0 7 rlineto closepath
fill
210 98 moveto
0 -7 rlineto 7 0 rlineto 0 7 rlineto closepath
fill
217 98 moveto
0 -7 rlineto 7 0 rlineto 0 7 rlineto closepath
fill
224 98 moveto
0 -7 rlineto 7 0 rlineto 0 7 rlineto closepath
fill
231 98 moveto
0 -7 rlineto 7 0 rlineto 0 7 rlineto closepath
fill
245 98 moveto
0 -7 rlineto 7 0 rlineto 0 7 rlineto closepath
fill
252 98 moveto
0 -7 rlineto 7 0 rlineto 0 7 rlineto closepath
fill
259 98 moveto
0 -7 rlineto 7 0 rlineto 0 7 rlineto closepath
fill
280 98 moveto
0 -7 rlineto 7 0 rlineto 0 7 rlineto closepath
fill
287 98 moveto
0 -7 rlineto 7 0 rlineto 0 7 rlineto closepath
fill
301 98 moveto
0 -7 rlineto 7 0 rlineto 0 7 rlineto closepath
fill
308 98 moveto
0 -7 rlineto 7 0 rlineto 0 7 rlineto closepath
fill
315 98 moveto
0 -7 rlineto 7 0 rlineto 0 7 rlineto closepath
fill
322 98 moveto
0 -7 rlineto 7 0 rlineto 0 7 rlineto closepath
fill
343 98 moveto
0 -7 rlineto 7 0 rlineto 0 7 rlineto closepath
fill
357 98 moveto
0 -7 rlineto 7 0 rlineto 0 7 rlineto closepath
fill
364 98 moveto
0 -7 rlineto 7 0 rlineto 0 7 rlineto closepath
fill
0 91 moveto
0 -7 rlineto 7 0 rlineto 0 7 rlineto closepath
fill
14 91 moveto
0 -7 rlineto 7 0 rlineto 0 7 rlineto closepath
fill
35 91 moveto
0 -7 rlineto 7 0 rlineto 0 7 rlineto closepath
fill
42 91 moveto
0 -7 rlineto 7 0 rlineto 0 7 rlineto closepath
fill
56 91 moveto
0 -7 rlineto 7 0 rlineto 0 7 rlineto closepath
fill
70 91 moveto
0 -7 rlineto 7 0 rlineto 0 7 rlineto closepath
fill
84 91 moveto
0 -7 rlineto 7 0 rlineto 0 7 rlineto closepath
fill
126 91 moveto
0 -7 rlineto 7 0 rlineto 0 7 rlineto closepath
fill
140 91 moveto
0 -7 rlineto 7 0 rlineto 0 7 rlineto closepath
fill
147 91 moveto
0 -7 rlineto 7 0 rlineto 0 7 rlineto closepath
fill
154 91 moveto
0 -7 rlineto 7 0 rlineto 0 7 rlineto closepath
fill
168 91 moveto
0 -7 rlineto 7 0 rlineto 0 7 rlineto closepath
fill
182 91 moveto
0 -7 rlineto 7 0 rlineto 0 7 rlineto closepath
fill
203 91 moveto
0 -7 rlineto 7 0 rlineto 0 7 rlineto closepath
fill
224 91 moveto
0 -7 rlineto 7 0 rlineto 0 7 rlineto closepath
fill
231 91 moveto
0 -7 rlineto 7 0 rlineto 0 7 rlineto closepath
fill
245 91 moveto
0 -7 rlineto 7 0 rlineto 0 7 rlineto closepath
fill
252 91 moveto
0 -7 rlineto 7 0 rlineto 0 7 rlineto closepath
fill
273 91 moveto
0 -7 rlineto 7 0 rlineto 0 7 rlineto closepath
fill
301 91 moveto
0 -7 rlineto 7 0 rlineto 0 7 rlineto closepath
fill
308 91 moveto
0 -7 rlineto 7 0 rlineto 0 7 rlineto closepath
fill
329 91 moveto
0 -7 rlineto 7 0 rlineto 0 7 rlineto closepath
fill
336 91 moveto
0 -7 rlineto 7 0 rlineto 0 7 rlineto closepath
fill
343 91 moveto
0 -7 rlineto 7 0 rlineto 0 7 rlineto closepath
fill
350 91 moveto
0 -7 rlineto 7 0 rlineto 0 7 rlineto closepath
fill
357 91 moveto
0 -7 rlineto 7 0 rlineto 0 7 rlineto closepath
fill
364 91 moveto
0 -7 rlineto 7 0 rlineto 0 7 rlineto closepath
fill
0 84 moveto
0 -7 rlineto 7 0 rlineto 0 7 rlineto closepath
fill
14 84 moveto
0 -7 rlineto 7 0 rlineto 0 7 rlineto closepath
fill
21 84 moveto
0 -7 rlineto 7 0 rlineto 0 7 rlineto closepath
fill
56 84 moveto
0 -7 rlineto 7 0 rlineto 0 7 rlineto closepath
fill
63 84 moveto
0 -7 rlineto 7 0 rlineto 0 7 rlineto closepath
fill
70 84 moveto
0 -7 rlineto 7 0 rlineto 0 7 rlineto closepath
fill
84 84 moveto
0 -7 rlineto 7 0 rlineto 0 7 rlineto closepath
fill
91 84 moveto
0 -7 rlineto 7 0 rlineto 0 7 rlineto closepath
fill
98 84 moveto
0 -7 rlineto 7 0 rlineto 0 7 rlineto closepath
fill
105 84 moveto
0 -7 rlineto 7 0 rlineto 0 7 rlineto closepath
fill
112 84 moveto
0 -7 rlineto 7 0 rlineto 0 7 rlineto closepath
fill
119 84 moveto
0 -7 rlineto 7 0 rlineto 0 7 rlineto closepath
fill
126 84 moveto
0 -7 rlineto 7 0 rlineto 0 7 rlineto closepath
fill
133 84 moveto
0 -7 rlineto 7 0 rlineto 0 7 rlineto closepath
fill
140 84 moveto
0 -7 rlineto 7 0 rlineto 0 7 rlineto closepath
fill
161 84 moveto
0 -7 rlineto 7 0 rlineto 0 7 rlineto closepath
fill
175 84 moveto
0 -7 rlineto 7 0 rlineto 0 7 rlineto closepath
fill
203 84 moveto
0 -7 rlineto 7 0 rlineto 0 7 rlineto closepath
fill
210 84 moveto
0 -7 rlineto 7 0 rlineto 0 7 rlineto closepath
fill
224 84 moveto
0 -7 rlineto 7 0 rlineto 0 7 rlineto closepath
fill
231 84 moveto
0 -7 rlineto 7 0 rlineto 0 7 rlineto closepath
fill
245 84 moveto
0 -7 rlineto 7 0 rlineto 0 7 rlineto closepath
fill
252 84 moveto
0 -7 rlineto 7 0 rlineto 0 7 rlineto closepath
fill
259 84 moveto
0 -7 rlineto 7 0 rlineto 0 7 rlineto closepath
fill
266 84 moveto
0 -7 rlineto 7 0 rlineto 0 7 rlineto closepath
fill
273 84 moveto
0 -7 rlineto 7 0 rlineto 0 7 rlineto closepath
fill
280 84 moveto
0 -7 rlineto 7 0 rlineto 0 7 rlineto closepath
fill
287 84 moveto
0 -7 rlineto 7 0 rlineto 0 7 rlineto closepath
fill
294 84 moveto
0 -7 rlineto 7 0 rlineto 0 7 rlineto closepath
fill
315 84 moveto
0 -7 rlineto 7 0 rlineto 0 7 rlineto closepath
fill
329 84 moveto
0 -7 rlineto 7 0 rlineto 0 7 rlineto closepath
fill
336 84 moveto
0 -7 rlineto 7 0 rlineto 0 7 rlineto closepath
fill
0 77 moveto
0 -7 rlineto 7 0 rlineto 0 7 rlineto closepath
fill
7 77 moveto
0 -7 rlineto 7 0 rlineto 0 7 rlineto closepath
fill
21 77 moveto
0 -7 rlineto 7 0 rlineto 0 7 rlineto closepath
fill
28 77 moveto
0 -7 rlineto 7 0 rlineto 0 7 rlineto closepath
fill
35 77 moveto
0 -7 rlineto 7 0 rlineto 0 7 rlineto closepath
fill
42 77 moveto
0 -7 rlineto 7 0 rlineto 0 7 rlineto closepath
fill
49 77 moveto
0 -7 rlineto 7 0 rlineto 0 7 rlineto closepath
fill
63 77 moveto
0 -7 rlineto 7 0 rlineto 0 7 rlineto closepath
fill
77 77 moveto
0 -7 rlineto 7 0 rlineto 0 7 rlineto closepath
fill
84 77 moveto
0 -7 rlineto 7 0 rlineto 0 7 rlineto closepath
fill
98 77 moveto
0 -7 rlineto 7 0 rlineto 0 7 rlineto closepath
fill
105 77 moveto
0 -7 rlineto 7 0 rlineto 0 7 rlineto closepath
fill
133 77 moveto
0 -7 rlineto 7 0 rlineto 0 7 rlineto closepath
fill
154 77 moveto
0 -7 rlineto 7 0 rlineto 0 7 rlineto closepath
fill
161 77 moveto
0 -7 rlineto 7 0 rlineto 0 7 rlineto closepath
fill
175 77 moveto
0 -7 rlineto 7 0 rlineto 0 7 rlineto closepath
fill
196 77 moveto
0 -7 rlineto 7 0 rlineto 0 7 rlineto closepath
fill
203 77 moveto
0 -7 rlineto 7 0 rlineto 0 7 rlineto closepath
fill
210 77 moveto
0 -7 rlineto 7 0 rlineto 0 7 rlineto closepath
fill
231 77 moveto
0 -7 rlineto 7 0 rlineto 0 7 rlineto closepath
fill
259 77 moveto
0 -7 rlineto 7 0 rlineto 0 7 rlineto closepath
fill
266 77 moveto
0 -7 rlineto 7 0 rlineto 0 7 rlineto closepath
fill
273 77 moveto
0 -7 rlineto 7 0 rlineto 0 7 rlineto closepath
fill
294 77 moveto
0 -7 rlineto 7 0 rlineto 0 7 rlineto closepath
fill
301 77 moveto
0 -7 rlineto 7 0 rlineto 0 7 rlineto closepath
fill
308 77 moveto
0 -7 rlineto 7 0 rlineto 0 7 rlineto closepath
fill
322 77 moveto
0 -7 rlineto 7 0 rlineto 0 7 rlineto closepath
fill
350 77 moveto
0 -7 rlineto 7 0 rlineto 0 7 rlineto closepath
fill
364 77 moveto
0 -7 rlineto 7 0 rlineto 0 7 rlineto closepath
fill
7 70 moveto
0 -7 rlineto 7 0 rlineto 0 7 rlineto closepath
fill
14 70 moveto
0 -7 rlineto 7 0 rlineto 0 7 rlineto closepath
fill
70 70 moveto
0 -7 rlineto 7 0 rlineto 0 7 rlineto closepath
fill
77 70 moveto
0 -7 rlineto 7 0 rlineto 0 7 rlineto closepath
fill
98 70 moveto
0 -7 rlineto 7 0 rlineto 0 7 rlineto closepath
fill
119 70 moveto
0 -7 rlineto 7 0 rlineto 0 7 rlineto closepath
fill
147 70 moveto
0 -7 rlineto 7 0 rlineto 0 7 rlineto closepath
fill
168 70 moveto
0 -7 rlineto 7 0 rlineto 0 7 rlineto closepath
fill
175 70 moveto
0 -7 rlineto 7 0 rlineto 0 7 rlineto closepath
fill
196 70 moveto
0 -7 rlineto 7 0 rlineto 0 7 rlineto closepath
fill
217 70 moveto
0 -7 rlineto 7 0 rlineto 0 7 rlineto closepath
fill
224 70 moveto
0 -7 rlineto 7 0 rlineto 0 7 rlineto closepath
fill
245 70 moveto
0 -7 rlineto 7 0 rlineto 0 7 rlineto closepath
fill
252 70 moveto
0 -7 rlineto 7 0 rlineto 0 7 rlineto closepath
fill
266 70 moveto
0 -7 rlineto 7 0 rlineto 0 7 rlineto closepath
fill
273 70 moveto
0 -7 rlineto 7 0 rlineto 0 7 rlineto closepath
fill
280 70 moveto
0 -7 rlineto 7 0 rlineto 0 7 rlineto closepath
fill
294 70 moveto
0 -7 rlineto 7 0 rlineto 0 7 rlineto closepath
fill
301 70 moveto
0 -7 rlineto 7 0 rlineto 0 7 rlineto closepath
fill
315 70 moveto
0 -7 rlineto 7 0 rlineto 0 7 rlineto closepath
fill
343 70 moveto
0 -7 rlineto 7 0 rlineto 0 7 rlineto closepath
fill
364 70 moveto
0 -7 rlineto 7 0 rlineto 0 7 rlineto closepath
fill
21 63 moveto
0 -7 rlineto 7 0 rlineto 0 7 rlineto closepath
fill
42 63 moveto
0 -7 rlineto 7 0 rlineto 0 7 rlineto closepath
fill
49 63 moveto
0 -7 rlineto 7 0 rlineto 0 7 rlineto closepath
fill
56 63 moveto
0 -7 rlineto 7 0 rlineto 0 7 rlineto closepath
fill
84 63 moveto
0 -7 rlineto 7 0 rlineto 0 7 rlineto closepath
fill
98 63 moveto
0 -7 rlineto 7 0 rlineto 0 7 rlineto closepath
fill
119 63 moveto
0 -7 rlineto 7 0 rlineto 0 7 rlineto closepath
fill
126 63 moveto
0 -7 rlineto 7 0 rlineto 0 7 rlineto closepath
fill
147 63 moveto
0 -7 rlineto 7 0 rlineto 0 7 rlineto closepath
fill
161 63 moveto
0 -7 rlineto 7 0 rlineto 0 7 rlineto closepath
fill
168 63 moveto
0 -7 rlineto 7 0 rlineto 0 7 rlineto closepath
fill
175 63 moveto
0 -7 rlineto 7 0 rlineto 0 7 rlineto closepath
fill
182 63 moveto
0 -7 rlineto 7 0 rlineto 0 7 rlineto closepath
fill
189 63 moveto
0 -7 rlineto 7 0 rlineto 0 7 rlineto closepath
fill
196 63 moveto
0 -7 rlineto 7 0 rlineto 0 7 rlineto closepath
fill
210 63 moveto
0 -7 rlineto 7 0 rlineto 0 7 rlineto closepath
fill
224 63 moveto
0 -7 rlineto 7 0 rlineto 0 7 rlineto closepath
fill
231 63 moveto
0 -7 rlineto 7 0 rlineto 0 7 rlineto closepath
fill
238 63 moveto
0 -7 rlineto 7 0 rlineto 0 7 rlineto closepath
fill
245 63 moveto
0 -7 rlineto 7 0 rlineto 0 7 rlineto closepath
fill
252 63 moveto
0 -7 rlineto 7 0 rlineto 0 7 rlineto closepath
fill
259 63 moveto
0 -7 rlineto 7 0 rlineto 0 7 rlineto closepath
fill
301 63 moveto
0 -7 rlineto 7 0 rlineto 0 7 rlineto closepath
fill
308 63 moveto
0 -7 rlineto 7 0 rlineto 0 7 rlineto closepath
fill
315 63 moveto
0 -7 rlineto 7 0 rlineto 0 7 rlineto closepath
fill
322 63 moveto
0 -7 rlineto 7 0 rlineto 0 7 rlineto closepath
fill
329 63 moveto
0 -7 rlineto 7 0 rlineto 0 7 rlineto closepath
fill
336 63 moveto
0 -7 rlineto 7 0 rlineto 0 7 rlineto closepath
fill
350 63 moveto
0 -7 rlineto 7 0 rlineto 0 7 rlineto closepath
fill
364 63 moveto
0 -7 rlineto 7 0 rlineto 0 7 rlineto closepath
fill
56 56 moveto
0 -7 rlineto 7 0 rlineto 0 7 rlineto closepath
fill
63 56 moveto
0 -7 rlineto 7 0 rlineto 0 7 rlineto closepath
fill
70 56 moveto
0 -7 rlineto 7 0 rlineto 0 7 rlineto closepath
fill
84 56 moveto
0 -7 rlineto 7 0 rlineto 0 7 rlineto closepath
fill
91 56 moveto
0 -7 rlineto 7 0 rlineto 0 7 rlineto closepath
fill
105 56 moveto
0 -7 rlineto 7 0 rlineto 0 7 rlineto closepath
fill
140 56 moveto
0 -7 rlineto 7 0 rlineto 0 7 rlineto closepath
fill
154 56 moveto
0 -7 rlineto 7 0 rlineto 0 7 rlineto closepath
fill
168 56 moveto
0 -7 rlineto 7 0 rlineto 0 7 rlineto closepath
fill
196 56 moveto
0 -7 rlineto 7 0 rlineto 0 7 rlineto closepath
fill
210 56 moveto
0 -7 rlineto 7 0 rlineto 0 7 rlineto closepath
fill
231 56 moveto
0 -7 rlineto 7 0 rlineto 0 7 rlineto closepath
fill
245 56 moveto
0 -7 rlineto 7 0 rlineto 0 7 rlineto closepath
fill
259 56 moveto
0 -7 rlineto 7 0 rlineto 0 7 rlineto closepath
fill
266 56 moveto
0 -7 rlineto 7 0 rlineto 0 7 rlineto closepath
fill
273 56 moveto
0 -7 rlineto 7 0 rlineto 0 7 rlineto closepath
fill
287 56 moveto
0 -7 rlineto 7 0 rlineto 0 7 rlineto closepath
fill
294 56 moveto
0 -7 rlineto 7 0 rlineto 0 7 rlineto closepath
fill
301 56 moveto
0 -7 rlineto 7 0 rlineto 0 7 rlineto closepath
fill
308 56 moveto
0 -7 rlineto 7 0 rlineto 0 7 rlineto closepath
fill
336 56 moveto
0 -7 rlineto 7 0 rlineto 0 7 rlineto closepath
fill
343 56 moveto
0 -7 rlineto 7 0 rlineto 0 7 rlineto closepath
fill
350 56 moveto
0 -7 rlineto 7 0 rlineto 0 7 rlineto closepath
fill
0 49 moveto
0 -7 rlineto 7 0 rlineto 0 7 rlineto closepath
fill
7 49 moveto
0 -7 rlineto 7 0 rlineto 0 7 rlineto closepath
fill
14 49 moveto
0 -7 rlineto 7 0 rlineto 0 7 rlineto closepath
fill
21 49 moveto
0 -7 rlineto 7 0 rlineto 0 7 rlineto closepath
fill
28 49 moveto
0 -7 rlineto 7 0 rlineto 0 7 rlineto closepath
fill
35 49 moveto
0 -7 rlineto 7 0 rlineto 0 7 rlineto closepath
fill
42 49 moveto
0 -7 rlineto 7 0 rlineto 0 7 rlineto closepath
fill
84 49 moveto
0 -7 rlineto 7 0 rlineto 0 7 rlineto closepath
fill
91 49 moveto
0 -7 rlineto 7 0 rlineto 0 7 rlineto closepath
fill
98 49 moveto
0 -7 rlineto 7 0 rlineto 0 7 rlineto closepath
fill
105 49 moveto
0 -7 rlineto 7 0 rlineto 0 7 rlineto closepath
fill
112 49 moveto
0 -7 rlineto 7 0 rlineto 0 7 rlineto closepath
fill
126 49 moveto
0 -7 rlineto 7 0 rlineto 0 7 rlineto closepath
fill
140 49 moveto
0 -7 rlineto 7 0 rlineto 0 7 rlineto closepath
fill
147 49 moveto
0 -7 rlineto 7 0 rlineto 0 7 rlineto closepath
fill
154 49 moveto
0 -7 rlineto 7 0 rlineto 0 7 rlineto closepath
fill
161 49 moveto
0 -7 rlineto 7 0 rlineto 0 7 rlineto closepath
fill
168 49 moveto
0 -7 rlineto 7 0 rlineto 0 7 rlineto closepath
fill
182 49 moveto
0 -7 rlineto 7 0 rlineto 0 7 rlineto closepath
fill
196 49 moveto
0 -7 rlineto 7 0 rlineto 0 7 rlineto closepath
fill
210 49 moveto
0 -7 rlineto 7 0 rlineto 0 7 rlineto closepath
fill
224 49 moveto
0 -7 rlineto 7 0 rlineto 0 7 rlineto closepath
fill
252 49 moveto
0 -7 rlineto 7 0 rlineto 0 7 rlineto closepath
fill
266 49 moveto
0 -7 rlineto 7 0 rlineto 0 7 rlineto closepath
fill
280 49 moveto
0 -7 rlineto 7 0 rlineto 0 7 rlineto closepath
fill
287 49 moveto
0 -7 rlineto 7 0 rlineto 0 7 rlineto closepath
fill
294 49 moveto
0 -7 rlineto 7 0 rlineto 0 7 rlineto closepath
fill
301 49 moveto
0 -7 rlineto 7 0 rlineto 0 7 rlineto closepath
fill
308 49 moveto
0 -7 rlineto 7 0 rlineto 0 7 rlineto closepath
fill
322 49 moveto
0 -7 rlineto 7 0 rlineto 0 7 rlineto closepath
fill
336 49 moveto
0 -7 rlineto 7 0 rlineto 0 7 rlineto closepath
fill
343 49 moveto
0 -7 rlineto 7 0 rlineto 0 7 rlineto closepath
fill
364 49 moveto
0 -7 rlineto 7 0 rlineto 0 7 rlineto closepath
fill
0 42 moveto
0 -7 rlineto 7 0 rlineto 0 7 rlineto closepath
fill
42 42 moveto
0 -7 rlineto 7 0 rlineto 0 7 rlineto closepath
fill
56 42 moveto
0 -7 rlineto 7 0 rlineto 0 7 rlineto closepath
fill
84 42 moveto
0 -7 rlineto 7 0 rlineto 0 7 rlineto closepath
fill
98 42 moveto
0 -7 rlineto 7 0 rlineto 0 7 rlineto closepath
fill
105 42 moveto
0 -7 rlineto 7 0 rlineto 0 7 rlineto closepath
fill
112 42 moveto
0 -7 rlineto 7 0 rlineto 0 7 rlineto closepath
fill
119 42 moveto
0 -7 rlineto 7 0 rlineto 0 7 rlineto closepath
fill
126 42 moveto
0 -7 rlineto 7 0 rlineto 0 7 rlineto closepath
fill
154 42 moveto
0 -7 rlineto 7 0 rlineto 0 7 rlineto closepath
fill
168 42 moveto
0 -7 rlineto 7 0 rlineto 0 7 rlineto closepath
fill
196 42 moveto
0 -7 rlineto 7 0 rlineto 0 7 rlineto closepath
fill
224 42 moveto
0 -7 rlineto 7 0 rlineto 0 7 rlineto closepath
fill
245 42 moveto
0 -7 rlineto 7 0 rlineto 0 7 rlineto closepath
fill
252 42 moveto
0 -7 rlineto 7 0 rlineto 0 7 rlineto closepath
fill
266 42 moveto
0 -7 rlineto 7 0 rlineto 0 7 rlineto closepath
fill
301 42 moveto
0 -7 rlineto 7 0 rlineto 0 7 rlineto closepath
fill
308 42 moveto
0 -7 rlineto 7 0 rlineto 0 7 rlineto closepath
fill
336 42 moveto
0 -7 rlineto 7 0 rlineto 0 7 rlineto closepath
fill
343 42 moveto
0 -7 rlineto 7 0 rlineto 0 7 rlineto closepath
fill
364 42 moveto
0 -7 rlineto 7 0 rlineto 0 7 rlineto closepath
fill
0 35 moveto
0 -7 rlineto 7 0 rlineto 0 7 rlineto closepath
fill
14 35 moveto
0 -7 rlineto 7 0 rlineto 0 7 rlineto closepath
fill
21 35 moveto
0 -7 rlineto 7 0 rlineto 0 7 rlineto closepath
fill
28 35 moveto
0 -7 rlineto 7 0 rlineto 0 7 rlineto closepath
fill
42 35 moveto
0 -7 rlineto 7 0 rlineto 0 7 rlineto closepath
fill
56 35 moveto
0 -7 rlineto 7 0 rlineto 0 7 rlineto closepath
fill
70 35 moveto
0 -7 rlineto 7 0 rlineto 0 7 rlineto closepath
fill
77 35 moveto
0 -7 rlineto 7 0 rlineto 0 7 rlineto closepath
fill
84 35 moveto
0 -7 rlineto 7 0 rlineto 0 7 rlineto closepath
fill
105 35 moveto
0 -7 rlineto 7 0 rlineto 0 7 rlineto closepath
fill
119 35 moveto
0 -7 rlineto 7 0 rlineto 0 7 rlineto closepath
fill
133 35 moveto
0 -7 rlineto 7 0 rlineto 0 7 rlineto closepath
fill
140 35 moveto
0 -7 rlineto 7 0 rlineto 0 7 rlineto closepath
fill
168 35 moveto
0 -7 rlineto 7 0 rlineto 0 7 rlineto closepath
fill
175 35 moveto
0 -7 rlineto 7 0 rlineto 0 7 rlineto closepath
fill
182 35 moveto
0 -7 rlineto 7 0 rlineto 0 7 rlineto closepath
fill
189 35 moveto
0 -7 rlineto 7 0 rlineto 0 7 rlineto closepath
fill
196 35 moveto
0 -7 rlineto 7 0 rlineto 0 7 rlineto closepath
fill
203 35 moveto
0 -7 rlineto 7 0 rlineto 0 7 rlineto closepath
fill
224 35 moveto
0 -7 rlineto 7 0 rlineto 0 7 rlineto closepath
fill
238 35 moveto
0 -7 rlineto 7 0 rlineto 0 7 rlineto closepath
fill
245 35 moveto
0 -7 rlineto 7 0 rlineto 0 7 rlineto closepath
fill
252 35 moveto
0 -7 rlineto 7 0 rlineto 0 7 rlineto closepath
fill
259 35 moveto
0 -7 rlineto 7 0 rlineto 0 7 rlineto closepath
fill
287 35 moveto
0 -7 rlineto 7 0 rlineto 0 7 rlineto closepath
fill
294 35 moveto
0 -7 rlineto 7 0 rlineto 0 7 rlineto closepath
fill
308 35 moveto
0 -7 rlineto 7 0 rlineto 0 7 rlineto closepath
fill
315 35 moveto
0 -7 rlineto 7 0 rlineto 0 7 rlineto closepath
fill
322 35 moveto
0 -7 rlineto 7 0 rlineto 0 7 rlineto closepath
fill
329 35 moveto
0 -7 rlineto 7 0 rlineto 0 7 rlineto closepath
fill
336 35 moveto
0 -7 rlineto 7 0 rlineto 0 7 rlineto closepath
fill
350 35 moveto
0 -7 rlineto 7 0 rlineto 0 7 rlineto closepath
fill
364 35 moveto
0 -7 rlineto 7 0 rlineto 0 7 rlineto closepath
fill
0 28 moveto
0 -7 rlineto 7 0 rlineto 0 7 rlineto closepath
fill
14 28 moveto
0 -7 rlineto 7 0 rlineto 0 7 rlineto closepath
fill
21 28 moveto
0 -7 rlineto 7 0 rlineto 0 7 rlineto closepath
fill
28 28 moveto
0 -7 rlineto 7 0 rlineto 0 7 rlineto closepath
fill
42 28 moveto
0 -7 rlineto 7 0 rlineto 0 7 rlineto closepath
fill
77 28 moveto
0 -7 rlineto 7 0 rlineto 0 7 rlineto closepath
fill
84 28 moveto
0 -7 rlineto 7 0 rlineto 0 7 rlineto closepath
fill
126 28 moveto
0 -7 rlineto 7 0 rlineto 0 7 rlineto closepath
fill
147 28 moveto
0 -7 rlineto 7 0 rlineto 0 7 rlineto closepath
fill
182 28 moveto
0 -7 rlineto 7 0 rlineto 0 7 rlineto closepath
fill
189 28 moveto
0 -7 rlineto 7 0 rlineto 0 7 rlineto closepath
fill
203 28 moveto
0 -7 rlineto 7 0 rlineto 0 7 rlineto closepath
fill
210 28 moveto
0 -7 rlineto 7 0 rlineto 0 7 rlineto closepath
fill
217 28 moveto
0 -7 rlineto 7 0 rlineto 0 7 rlineto closepath
fill
231 28 moveto
0 -7 rlineto 7 0 rlineto 0 7 rlineto closepath
fill
245 28 moveto
0 -7 rlineto 7 0 rlineto 0 7 rlineto closepath
fill
266 28 moveto
0 -7 rlineto 7 0 rlineto 0 7 rlineto closepath
fill
273 28 moveto
0 -7 rlineto 7 0 rlineto 0 7 rlineto closepath
fill
280 28 moveto
0 -7 rlineto 7 0 rlineto 0 7 rlineto closepath
fill
287 28 moveto
0 -7 rlineto 7 0 rlineto 0 7 rlineto closepath
fill
294 28 moveto
0 -7 rlineto 7 0 rlineto 0 7 rlineto closepath
fill
301 28 moveto
0 -7 rlineto 7 0 rlineto 0 7 rlineto closepath
fill
315 28 moveto
0 -7 rlineto 7 0 rlineto 0 7 rlineto closepath
fill
322 28 moveto
0 -7 rlineto 7 0 rlineto 0 7 rlineto closepath
fill
336 28 moveto
0 -7 rlineto 7 0 rlineto 0 7 rlineto closepath
fill
350 28 moveto
0 -7 rlineto 7 0 rlineto 0 7 rlineto closepath
fill
0 21 moveto
0 -7 rlineto 7 0 rlineto 0 7 rlineto closepath
fill
14 21 moveto
0 -7 rlineto 7 0 rlineto 0 7 rlineto closepath
fill
21 21 moveto
0 -7 rlineto 7 0 rlineto 0 7 rlineto closepath
fill
28 21 moveto
0 -7 rlineto 7 0 rlineto 0 7 rlineto closepath
fill
42 21 moveto
0 -7 rlineto 7 0 rlineto 0 7 rlineto closepath
fill
63 21 moveto
0 -7 rlineto 7 0 rlineto 0 7 rlineto closepath
fill
77 21 moveto
0 -7 rlineto 7 0 rlineto 0 7 rlineto closepath
fill
98 21 moveto
0 -7 rlineto 7 0 rlineto 0 7 rlineto closepath
fill
112 21 moveto
0 -7 rlineto 7 0 rlineto 0 7 rlineto closepath
fill
119 21 moveto
0 -7 rlineto 7 0 rlineto 0 7 rlineto closepath
fill
126 21 moveto
0 -7 rlineto 7 0 rlineto 0 7 rlineto closepath
fill
140 21 moveto
0 -7 rlineto 7 0 rlineto 0 7 rlineto closepath
fill
154 21 moveto
0 -7 rlineto 7 0 rlineto 0 7 rlineto closepath
fill
168 21 moveto
0 -7 rlineto 7 0 rlineto 0 7 rlineto closepath
fill
189 21 moveto
0 -7 rlineto 7 0 rlineto 0 7 rlineto closepath
fill
210 21 moveto
0 -7 rlineto 7 0 rlineto 0 7 rlineto closepath
fill
217 21 moveto
0 -7 rlineto 7 0 rlineto 0 7 rlineto closepath
fill
245 21 moveto
0 -7 rlineto 7 0 rlineto 0 7 rlineto closepath
fill
280 21 moveto
0 -7 rlineto 7 0 rlineto 0 7 rlineto closepath
fill
287 21 moveto
0 -7 rlineto 7 0 rlineto 0 7 rlineto closepath
fill
294 21 moveto
0 -7 rlineto 7 0 rlineto 0 7 rlineto closepath
fill
301 21 moveto
0 -7 rlineto 7 0 rlineto 0 7 rlineto closepath
fill
0 14 moveto
0 -7 rlineto 7 0 rlineto 0 7 rlineto closepath
fill
42 14 moveto
0 -7 rlineto 7 0 rlineto 0 7 rlineto closepath
fill
56 14 moveto
0 -7 rlineto 7 0 rlineto 0 7 rlineto closepath
fill
77 14 moveto
0 -7 rlineto 7 0 rlineto 0 7 rlineto closepath
fill
84 14 moveto
0 -7 rlineto 7 0 rlineto 0 7 rlineto closepath
fill
105 14 moveto
0 -7 rlineto 7 0 rlineto 0 7 rlineto closepath
fill
112 14 moveto
0 -7 rlineto 7 0 rlineto 0 7 rlineto closepath
fill
119 14 moveto
0 -7 rlineto 7 0 rlineto 0 7 rlineto closepath
fill
133 14 moveto
0 -7 rlineto 7 0 rlineto 0 7 rlineto closepath
fill
140 14 moveto
0 -7 rlineto 7 0 rlineto 0 7 rlineto closepath
fill
154 14 moveto
0 -7 rlineto 7 0 rlineto 0 7 rlineto closepath
fill
161 14 moveto
0 -7 rlineto 7 0 rlineto 0 7 rlineto closepath
fill
168 14 moveto
0 -7 rlineto 7 0 rlineto 0 7 rlineto closepath
fill
175 14 moveto
0 -7 rlineto 7 0 rlineto 0 7 rlineto closepath
fill
203 14 moveto
0 -7 rlineto 7 0 rlineto 0 7 rlineto closepath
fill
224 14 moveto
0 -7 rlineto 7 0 rlineto 0 7 rlineto closepath
fill
231 14 moveto
0 -7 rlineto 7 0 rlineto 0 7 rlineto closepath
fill
238 14 moveto
0 -7 rlineto 7 0 rlineto 0 7 rlineto closepath
fill
245 14 moveto
0 -7 rlineto 7 0 rlineto 0 7 rlineto closepath
fill
252 14 moveto
0 -7 rlineto 7 0 rlineto 0 7 rlineto closepath
fill
259 14 moveto
0 -7 rlineto 7 0 rlineto 0 7 rlineto closepath
fill
266 14 moveto
0 -7 rlineto 7 0 rlineto 0 7 rlineto closepath
fill
273 14 moveto
0 -7 rlineto 7 0 rlineto 0 7 rlineto closepath
fill
301 14 moveto
0 -7 rlineto 7 0 rlineto 0 7 rlineto closepath
fill
322 14 moveto
0 -7 rlineto 7 0 rlineto 0 7 rlineto closepath
fill
329 14 moveto
0 -7 rlineto 7 0 rlineto 0 7 rlineto closepath
fill
336 14 moveto
0 -7 rlineto 7 0 rlineto 0 7 rlineto closepath
fill
343 14 moveto
0 -7 rlineto 7 0 rlineto 0 7 rlineto closepath
fill
357 14 moveto
0 -7 rlineto 7 0 rlineto 0 7 rlineto closepath
fill
364 14 moveto
0 -7 rlineto 7 0 rlineto 0 7 rlineto closepath
fill
0 7 moveto
0 -7 rlineto 7 0 rlineto 0 7 rlineto closepath
fill
7 7 moveto
0 -7 rlineto 7 0 rlineto 0 7 rlineto closepath
fill
14 7 moveto
0 -7 rlineto 7 0 rlineto 0 7 rlineto closepath
fill
21 7 moveto
0 -7 rlineto 7 0 rlineto 0 7 rlineto closepath
fill
28 7 moveto
0 -7 rlineto 7 0 rlineto 0 7 rlineto closepath
fill
35 7 moveto
0 -7 rlineto 7 0 rlineto 0 7 rlineto closepath
fill
42 7 moveto
0 -7 rlineto 7 0 rlineto 0 7 rlineto closepath
fill
56 7 moveto
0 -7 rlineto 7 0 rlineto 0 7 rlineto closepath
fill
63 7 moveto
0 -7 rlineto 7 0 rlineto 0 7 rlineto closepath
fill
77 7 moveto
0 -7 rlineto 7 0 rlineto 0 7 rlineto closepath
fill
84 7 moveto
0 -7 rlineto 7 0 rlineto 0 7 rlineto closepath
fill
91 7 moveto
0 -7 rlineto 7 0 rlineto 0 7 rlineto closepath
fill
112 7 moveto
0 -7 rlineto 7 0 rlineto 0 7 rlineto closepath
fill
126 7 moveto
0 -7 rlineto 7 0 rlineto 0 7 rlineto closepath
fill
147 7 moveto
0 -7 rlineto 7 0 rlineto 0 7 rlineto closepath
fill
161 7 moveto
0 -7 rlineto 7 0 rlineto 0 7 rlineto closepath
fill
168 7 moveto
0 -7 rlineto 7 0 rlineto 0 7 rlineto closepath
fill
182 7 moveto
0 -7 rlineto 7 0 rlineto 0 7 rlineto closepath
fill
224 7 moveto
0 -7 rlineto 7 0 rlineto 0 7 rlineto closepath
fill
238 7 moveto
0 -7 rlineto 7 0 rlineto 0 7 rlineto closepath
fill
252 7 moveto
0 -7 rlineto 7 0 rlineto 0 7 rlineto closepath
fill
273 7 moveto
0 -7 rlineto 7 0 rlineto 0 7 rlineto closepath
fill
294 7 moveto
0 -7 rlineto 7 0 rlineto 0 7 rlineto closepath
fill
301 7 moveto
0 -7 rlineto 7 0 rlineto 0 7 rlineto closepath
fill
336 7 moveto
0 -7 rlineto 7 0 rlineto 0 7 rlineto closepath
fill
343 7 moveto
0 -7 rlineto 7 0 rlineto 0 7 rlineto closepath
fill
350 7 moveto
0 -7 rlineto 7 0 rlineto 0 7 rlineto closepath
fill
357 7 moveto
0 -7 rlineto 7 0 rlineto 0 7 rlineto closepath
fill